(module SW_MX_1.25u_Kailh (layer F.Cu) (tedit 6150DA41)
  (descr "Cherry MX keyswitch, 1.25u, PCB mount, with Kailh socket")
  (tags "Cherry MX keyswitch 1.25u PCB 1.25 Kailh")
  (fp_text reference REF** (at 0 -7.874) (layer F.SilkS)
    (effects (font (size 1 1) (thickness 0.15)))
  )
  (fp_text value SW_MX_1.25u_Kailh (at 0 7.874) (layer F.Fab)
    (effects (font (size 1 1) (thickness 0.15)))
  )
  (fp_line (start -6.35 -6.35) (end 6.35 -6.35) (layer F.Fab) (width 0.1))
  (fp_line (start 6.35 -6.35) (end 6.35 6.35) (layer F.Fab) (width 0.1))
  (fp_line (start 6.35 6.35) (end -6.35 6.35) (layer F.Fab) (width 0.1))
  (fp_line (start -6.35 6.35) (end -6.35 -6.35) (layer F.Fab) (width 0.1))
  (fp_line (start -6.6 6.6) (end -6.6 -6.6) (layer F.CrtYd) (width 0.05))
  (fp_line (start 6.6 6.6) (end -6.6 6.6) (layer F.CrtYd) (width 0.05))
  (fp_line (start 6.6 -6.6) (end 6.6 6.6) (layer F.CrtYd) (width 0.05))
  (fp_line (start -6.6 -6.6) (end 6.6 -6.6) (layer F.CrtYd) (width 0.05))
  (fp_line (start -11.90625 -9.525) (end 11.90625 -9.525) (layer Dwgs.User) (width 0.15))
  (fp_line (start 11.90625 -9.525) (end 11.90625 9.525) (layer Dwgs.User) (width 0.15))
  (fp_line (start 11.90625 9.525) (end -11.90625 9.525) (layer Dwgs.User) (width 0.15))
  (fp_line (start -11.90625 9.525) (end -11.90625 -9.525) (layer Dwgs.User) (width 0.15))
  (fp_line (start -6.985 -6.985) (end 6.985 -6.985) (layer F.SilkS) (width 0.12))
  (fp_line (start 6.985 -6.985) (end 6.985 6.985) (layer F.SilkS) (width 0.12))
  (fp_line (start 6.985 6.985) (end -6.985 6.985) (layer F.SilkS) (width 0.12))
  (fp_line (start -6.985 6.985) (end -6.985 -6.985) (layer F.SilkS) (width 0.12))
  (fp_text user %R (at 0 -7.874) (layer F.Fab)
    (effects (font (size 1 1) (thickness 0.15)))
  )
  (pad "" np_thru_hole circle (at 0 0) (size 4 4) (drill 4) (layers *.Cu *.Mask))
  (pad "" np_thru_hole circle (at -5.08 0) (size 1.7 1.7) (drill 1.7) (layers *.Cu *.Mask))
  (pad "" np_thru_hole circle (at 5.08 0) (size 1.7 1.7) (drill 1.7) (layers *.Cu *.Mask))
  (pad 2 smd rect (at -7.355 -2.54) (size 2.55 2.5) (layers B.Cu B.Paste B.Mask))
  (pad 1 smd rect (at 6.09 -5.08) (size 2.55 2.5) (layers B.Cu B.Paste B.Mask))
  (pad "" np_thru_hole circle (at 2.54 -5.08) (size 3 3) (drill 3) (layers *.Cu *.Mask))
  (pad "" np_thru_hole circle (at -3.81 -2.54) (size 3 3) (drill 3) (layers *.Cu *.Mask))
  (model ${KISYS3DMOD}/Button_Switch_Keyboard.3dshapes/SW_Cherry_MX_1.25u_PCB.wrl
    (at (xyz 0 0 0))
    (scale (xyz 1 1 1))
    (rotate (xyz 0 0 0))
  )
)
