%FSLAX45Y45*%
G04 Gerber Fmt 4.5, Leading zero omitted, Abs format (unit mm)*
G04 Created by KiCad (PCBNEW 5.1.10) date 2021-10-02 19:38:33*
%MOMM*%
%LPD*%
G01*
G04 APERTURE LIST*
%TA.AperFunction,Profile*%
%ADD10C,0.050000*%
%TD*%
%ADD11C,0.200000*%
%ADD12C,0.300000*%
G04 APERTURE END LIST*
D10*
X17200000Y-4350000D02*
X6200000Y-4350000D01*
X17500000Y-4650000D02*
X17200000Y-4350000D01*
X18800000Y-4650000D02*
X17500000Y-4650000D01*
X20535000Y-4350000D02*
X18800000Y-4650000D01*
X22500000Y-15500000D02*
X20535000Y-4350000D01*
X6200000Y-15500000D02*
X22500000Y-15500000D01*
X6200000Y-4350000D02*
X6200000Y-15500000D01*
D11*
X8215000Y-4505000D02*
X8305000Y-4595000D01*
X8305000Y-4505000D02*
X8215000Y-4595000D01*
X8895000Y-4505000D02*
X8985000Y-4595000D01*
X8985000Y-4505000D02*
X8895000Y-4595000D01*
X7377000Y-8750000D02*
G75*
G03*
X7377000Y-8750000I-85000J0D01*
G01*
X7377000Y-10650000D02*
G75*
G03*
X7377000Y-10650000I-85000J0D01*
G01*
X7377000Y-12550000D02*
G75*
G03*
X7377000Y-12550000I-85000J0D01*
G01*
X7377000Y-14450000D02*
G75*
G03*
X7377000Y-14450000I-85000J0D01*
G01*
X7602000Y-6850000D02*
G75*
G03*
X7602000Y-6850000I-85000J0D01*
G01*
X8393000Y-8750000D02*
G75*
G03*
X8393000Y-8750000I-85000J0D01*
G01*
X8393000Y-10650000D02*
G75*
G03*
X8393000Y-10650000I-85000J0D01*
G01*
X8393000Y-12550000D02*
G75*
G03*
X8393000Y-12550000I-85000J0D01*
G01*
X8393000Y-14450000D02*
G75*
G03*
X8393000Y-14450000I-85000J0D01*
G01*
X8618000Y-6850000D02*
G75*
G03*
X8618000Y-6850000I-85000J0D01*
G01*
X9527000Y-6400000D02*
G75*
G03*
X9527000Y-6400000I-85000J0D01*
G01*
X9527000Y-8300000D02*
G75*
G03*
X9527000Y-8300000I-85000J0D01*
G01*
X9527000Y-10200000D02*
G75*
G03*
X9527000Y-10200000I-85000J0D01*
G01*
X9527000Y-12100000D02*
G75*
G03*
X9527000Y-12100000I-85000J0D01*
G01*
X9527000Y-14450000D02*
G75*
G03*
X9527000Y-14450000I-85000J0D01*
G01*
X10543000Y-6400000D02*
G75*
G03*
X10543000Y-6400000I-85000J0D01*
G01*
X10543000Y-8300000D02*
G75*
G03*
X10543000Y-8300000I-85000J0D01*
G01*
X10543000Y-10200000D02*
G75*
G03*
X10543000Y-10200000I-85000J0D01*
G01*
X10543000Y-12100000D02*
G75*
G03*
X10543000Y-12100000I-85000J0D01*
G01*
X10543000Y-14450000D02*
G75*
G03*
X10543000Y-14450000I-85000J0D01*
G01*
X11427000Y-5600000D02*
G75*
G03*
X11427000Y-5600000I-85000J0D01*
G01*
X11427000Y-7500000D02*
G75*
G03*
X11427000Y-7500000I-85000J0D01*
G01*
X11427000Y-9400000D02*
G75*
G03*
X11427000Y-9400000I-85000J0D01*
G01*
X11427000Y-11300000D02*
G75*
G03*
X11427000Y-11300000I-85000J0D01*
G01*
X12443000Y-5600000D02*
G75*
G03*
X12443000Y-5600000I-85000J0D01*
G01*
X12443000Y-7500000D02*
G75*
G03*
X12443000Y-7500000I-85000J0D01*
G01*
X12443000Y-9400000D02*
G75*
G03*
X12443000Y-9400000I-85000J0D01*
G01*
X12443000Y-11300000D02*
G75*
G03*
X12443000Y-11300000I-85000J0D01*
G01*
X13327000Y-5400000D02*
G75*
G03*
X13327000Y-5400000I-85000J0D01*
G01*
X13327000Y-7300000D02*
G75*
G03*
X13327000Y-7300000I-85000J0D01*
G01*
X13327000Y-9200000D02*
G75*
G03*
X13327000Y-9200000I-85000J0D01*
G01*
X13327000Y-11100000D02*
G75*
G03*
X13327000Y-11100000I-85000J0D01*
G01*
X14277000Y-14450000D02*
G75*
G03*
X14277000Y-14450000I-85000J0D01*
G01*
X14343000Y-5400000D02*
G75*
G03*
X14343000Y-5400000I-85000J0D01*
G01*
X14343000Y-7300000D02*
G75*
G03*
X14343000Y-7300000I-85000J0D01*
G01*
X14343000Y-9200000D02*
G75*
G03*
X14343000Y-9200000I-85000J0D01*
G01*
X14343000Y-11100000D02*
G75*
G03*
X14343000Y-11100000I-85000J0D01*
G01*
X15227000Y-5950000D02*
G75*
G03*
X15227000Y-5950000I-85000J0D01*
G01*
X15227000Y-7850000D02*
G75*
G03*
X15227000Y-7850000I-85000J0D01*
G01*
X15227000Y-9750000D02*
G75*
G03*
X15227000Y-9750000I-85000J0D01*
G01*
X15227000Y-11650000D02*
G75*
G03*
X15227000Y-11650000I-85000J0D01*
G01*
X15293000Y-14450000D02*
G75*
G03*
X15293000Y-14450000I-85000J0D01*
G01*
X16177000Y-14450000D02*
G75*
G03*
X16177000Y-14450000I-85000J0D01*
G01*
X16243000Y-5950000D02*
G75*
G03*
X16243000Y-5950000I-85000J0D01*
G01*
X16243000Y-7850000D02*
G75*
G03*
X16243000Y-7850000I-85000J0D01*
G01*
X16243000Y-9750000D02*
G75*
G03*
X16243000Y-9750000I-85000J0D01*
G01*
X16243000Y-11650000D02*
G75*
G03*
X16243000Y-11650000I-85000J0D01*
G01*
X17127000Y-5950000D02*
G75*
G03*
X17127000Y-5950000I-85000J0D01*
G01*
X17127000Y-7850000D02*
G75*
G03*
X17127000Y-7850000I-85000J0D01*
G01*
X17127000Y-9754000D02*
G75*
G03*
X17127000Y-9754000I-85000J0D01*
G01*
X17127000Y-11650000D02*
G75*
G03*
X17127000Y-11650000I-85000J0D01*
G01*
X17193000Y-14450000D02*
G75*
G03*
X17193000Y-14450000I-85000J0D01*
G01*
X18077000Y-14225000D02*
G75*
G03*
X18077000Y-14225000I-85000J0D01*
G01*
X18143000Y-5950000D02*
G75*
G03*
X18143000Y-5950000I-85000J0D01*
G01*
X18143000Y-7850000D02*
G75*
G03*
X18143000Y-7850000I-85000J0D01*
G01*
X18143000Y-9754000D02*
G75*
G03*
X18143000Y-9754000I-85000J0D01*
G01*
X18143000Y-11650000D02*
G75*
G03*
X18143000Y-11650000I-85000J0D01*
G01*
X19093000Y-14225000D02*
G75*
G03*
X19093000Y-14225000I-85000J0D01*
G01*
X19977000Y-14450000D02*
G75*
G03*
X19977000Y-14450000I-85000J0D01*
G01*
X20993000Y-14450000D02*
G75*
G03*
X20993000Y-14450000I-85000J0D01*
G01*
X7419000Y-8346000D02*
X7419000Y-8646000D01*
X7269000Y-8496000D02*
X7569000Y-8496000D01*
X7419000Y-10246000D02*
X7419000Y-10546000D01*
X7269000Y-10396000D02*
X7569000Y-10396000D01*
X7419000Y-12146000D02*
X7419000Y-12446000D01*
X7269000Y-12296000D02*
X7569000Y-12296000D01*
X7419000Y-14046000D02*
X7419000Y-14346000D01*
X7269000Y-14196000D02*
X7569000Y-14196000D01*
X7546000Y-8092000D02*
X7546000Y-8392000D01*
X7396000Y-8242000D02*
X7696000Y-8242000D01*
X7546000Y-9992000D02*
X7546000Y-10292000D01*
X7396000Y-10142000D02*
X7696000Y-10142000D01*
X7546000Y-11892000D02*
X7546000Y-12192000D01*
X7396000Y-12042000D02*
X7696000Y-12042000D01*
X7546000Y-13792000D02*
X7546000Y-14092000D01*
X7396000Y-13942000D02*
X7696000Y-13942000D01*
X7644000Y-6446000D02*
X7644000Y-6746000D01*
X7494000Y-6596000D02*
X7794000Y-6596000D01*
X7771000Y-6192000D02*
X7771000Y-6492000D01*
X7621000Y-6342000D02*
X7921000Y-6342000D01*
X8054000Y-8092000D02*
X8054000Y-8392000D01*
X7904000Y-8242000D02*
X8204000Y-8242000D01*
X8054000Y-9992000D02*
X8054000Y-10292000D01*
X7904000Y-10142000D02*
X8204000Y-10142000D01*
X8054000Y-11892000D02*
X8054000Y-12192000D01*
X7904000Y-12042000D02*
X8204000Y-12042000D01*
X8054000Y-13792000D02*
X8054000Y-14092000D01*
X7904000Y-13942000D02*
X8204000Y-13942000D01*
X8181000Y-8346000D02*
X8181000Y-8646000D01*
X8031000Y-8496000D02*
X8331000Y-8496000D01*
X8181000Y-10246000D02*
X8181000Y-10546000D01*
X8031000Y-10396000D02*
X8331000Y-10396000D01*
X8181000Y-12146000D02*
X8181000Y-12446000D01*
X8031000Y-12296000D02*
X8331000Y-12296000D01*
X8181000Y-14046000D02*
X8181000Y-14346000D01*
X8031000Y-14196000D02*
X8331000Y-14196000D01*
X8279000Y-6192000D02*
X8279000Y-6492000D01*
X8129000Y-6342000D02*
X8429000Y-6342000D01*
X8406000Y-6446000D02*
X8406000Y-6746000D01*
X8256000Y-6596000D02*
X8556000Y-6596000D01*
X9569000Y-5996000D02*
X9569000Y-6296000D01*
X9419000Y-6146000D02*
X9719000Y-6146000D01*
X9569000Y-7896000D02*
X9569000Y-8196000D01*
X9419000Y-8046000D02*
X9719000Y-8046000D01*
X9569000Y-9796000D02*
X9569000Y-10096000D01*
X9419000Y-9946000D02*
X9719000Y-9946000D01*
X9569000Y-11696000D02*
X9569000Y-11996000D01*
X9419000Y-11846000D02*
X9719000Y-11846000D01*
X9569000Y-14046000D02*
X9569000Y-14346000D01*
X9419000Y-14196000D02*
X9719000Y-14196000D01*
X9696000Y-5742000D02*
X9696000Y-6042000D01*
X9546000Y-5892000D02*
X9846000Y-5892000D01*
X9696000Y-7642000D02*
X9696000Y-7942000D01*
X9546000Y-7792000D02*
X9846000Y-7792000D01*
X9696000Y-9542000D02*
X9696000Y-9842000D01*
X9546000Y-9692000D02*
X9846000Y-9692000D01*
X9696000Y-11442000D02*
X9696000Y-11742000D01*
X9546000Y-11592000D02*
X9846000Y-11592000D01*
X9696000Y-13792000D02*
X9696000Y-14092000D01*
X9546000Y-13942000D02*
X9846000Y-13942000D01*
X10204000Y-5742000D02*
X10204000Y-6042000D01*
X10054000Y-5892000D02*
X10354000Y-5892000D01*
X10204000Y-7642000D02*
X10204000Y-7942000D01*
X10054000Y-7792000D02*
X10354000Y-7792000D01*
X10204000Y-9542000D02*
X10204000Y-9842000D01*
X10054000Y-9692000D02*
X10354000Y-9692000D01*
X10204000Y-11442000D02*
X10204000Y-11742000D01*
X10054000Y-11592000D02*
X10354000Y-11592000D01*
X10204000Y-13792000D02*
X10204000Y-14092000D01*
X10054000Y-13942000D02*
X10354000Y-13942000D01*
X10331000Y-5996000D02*
X10331000Y-6296000D01*
X10181000Y-6146000D02*
X10481000Y-6146000D01*
X10331000Y-7896000D02*
X10331000Y-8196000D01*
X10181000Y-8046000D02*
X10481000Y-8046000D01*
X10331000Y-9796000D02*
X10331000Y-10096000D01*
X10181000Y-9946000D02*
X10481000Y-9946000D01*
X10331000Y-11696000D02*
X10331000Y-11996000D01*
X10181000Y-11846000D02*
X10481000Y-11846000D01*
X10331000Y-14046000D02*
X10331000Y-14346000D01*
X10181000Y-14196000D02*
X10481000Y-14196000D01*
X11469000Y-5196000D02*
X11469000Y-5496000D01*
X11319000Y-5346000D02*
X11619000Y-5346000D01*
X11469000Y-7096000D02*
X11469000Y-7396000D01*
X11319000Y-7246000D02*
X11619000Y-7246000D01*
X11469000Y-8996000D02*
X11469000Y-9296000D01*
X11319000Y-9146000D02*
X11619000Y-9146000D01*
X11469000Y-10896000D02*
X11469000Y-11196000D01*
X11319000Y-11046000D02*
X11619000Y-11046000D01*
X11596000Y-4942000D02*
X11596000Y-5242000D01*
X11446000Y-5092000D02*
X11746000Y-5092000D01*
X11596000Y-6842000D02*
X11596000Y-7142000D01*
X11446000Y-6992000D02*
X11746000Y-6992000D01*
X11596000Y-8742000D02*
X11596000Y-9042000D01*
X11446000Y-8892000D02*
X11746000Y-8892000D01*
X11596000Y-10642000D02*
X11596000Y-10942000D01*
X11446000Y-10792000D02*
X11746000Y-10792000D01*
X12104000Y-4942000D02*
X12104000Y-5242000D01*
X11954000Y-5092000D02*
X12254000Y-5092000D01*
X12104000Y-6842000D02*
X12104000Y-7142000D01*
X11954000Y-6992000D02*
X12254000Y-6992000D01*
X12104000Y-8742000D02*
X12104000Y-9042000D01*
X11954000Y-8892000D02*
X12254000Y-8892000D01*
X12104000Y-10642000D02*
X12104000Y-10942000D01*
X11954000Y-10792000D02*
X12254000Y-10792000D01*
X12231000Y-5196000D02*
X12231000Y-5496000D01*
X12081000Y-5346000D02*
X12381000Y-5346000D01*
X12231000Y-7096000D02*
X12231000Y-7396000D01*
X12081000Y-7246000D02*
X12381000Y-7246000D01*
X12231000Y-8996000D02*
X12231000Y-9296000D01*
X12081000Y-9146000D02*
X12381000Y-9146000D01*
X12231000Y-10896000D02*
X12231000Y-11196000D01*
X12081000Y-11046000D02*
X12381000Y-11046000D01*
X13369000Y-4996000D02*
X13369000Y-5296000D01*
X13219000Y-5146000D02*
X13519000Y-5146000D01*
X13369000Y-6896000D02*
X13369000Y-7196000D01*
X13219000Y-7046000D02*
X13519000Y-7046000D01*
X13369000Y-8796000D02*
X13369000Y-9096000D01*
X13219000Y-8946000D02*
X13519000Y-8946000D01*
X13369000Y-10696000D02*
X13369000Y-10996000D01*
X13219000Y-10846000D02*
X13519000Y-10846000D01*
X13496000Y-4742000D02*
X13496000Y-5042000D01*
X13346000Y-4892000D02*
X13646000Y-4892000D01*
X13496000Y-6642000D02*
X13496000Y-6942000D01*
X13346000Y-6792000D02*
X13646000Y-6792000D01*
X13496000Y-8542000D02*
X13496000Y-8842000D01*
X13346000Y-8692000D02*
X13646000Y-8692000D01*
X13496000Y-10442000D02*
X13496000Y-10742000D01*
X13346000Y-10592000D02*
X13646000Y-10592000D01*
X14004000Y-4742000D02*
X14004000Y-5042000D01*
X13854000Y-4892000D02*
X14154000Y-4892000D01*
X14004000Y-6642000D02*
X14004000Y-6942000D01*
X13854000Y-6792000D02*
X14154000Y-6792000D01*
X14004000Y-8542000D02*
X14004000Y-8842000D01*
X13854000Y-8692000D02*
X14154000Y-8692000D01*
X14004000Y-10442000D02*
X14004000Y-10742000D01*
X13854000Y-10592000D02*
X14154000Y-10592000D01*
X14131000Y-4996000D02*
X14131000Y-5296000D01*
X13981000Y-5146000D02*
X14281000Y-5146000D01*
X14131000Y-6896000D02*
X14131000Y-7196000D01*
X13981000Y-7046000D02*
X14281000Y-7046000D01*
X14131000Y-8796000D02*
X14131000Y-9096000D01*
X13981000Y-8946000D02*
X14281000Y-8946000D01*
X14131000Y-10696000D02*
X14131000Y-10996000D01*
X13981000Y-10846000D02*
X14281000Y-10846000D01*
X14319000Y-14046000D02*
X14319000Y-14346000D01*
X14169000Y-14196000D02*
X14469000Y-14196000D01*
X14446000Y-13792000D02*
X14446000Y-14092000D01*
X14296000Y-13942000D02*
X14596000Y-13942000D01*
X14954000Y-13792000D02*
X14954000Y-14092000D01*
X14804000Y-13942000D02*
X15104000Y-13942000D01*
X15081000Y-14046000D02*
X15081000Y-14346000D01*
X14931000Y-14196000D02*
X15231000Y-14196000D01*
X15269000Y-5546000D02*
X15269000Y-5846000D01*
X15119000Y-5696000D02*
X15419000Y-5696000D01*
X15269000Y-7446000D02*
X15269000Y-7746000D01*
X15119000Y-7596000D02*
X15419000Y-7596000D01*
X15269000Y-9346000D02*
X15269000Y-9646000D01*
X15119000Y-9496000D02*
X15419000Y-9496000D01*
X15269000Y-11246000D02*
X15269000Y-11546000D01*
X15119000Y-11396000D02*
X15419000Y-11396000D01*
X15396000Y-5292000D02*
X15396000Y-5592000D01*
X15246000Y-5442000D02*
X15546000Y-5442000D01*
X15396000Y-7192000D02*
X15396000Y-7492000D01*
X15246000Y-7342000D02*
X15546000Y-7342000D01*
X15396000Y-9092000D02*
X15396000Y-9392000D01*
X15246000Y-9242000D02*
X15546000Y-9242000D01*
X15396000Y-10992000D02*
X15396000Y-11292000D01*
X15246000Y-11142000D02*
X15546000Y-11142000D01*
X15904000Y-5292000D02*
X15904000Y-5592000D01*
X15754000Y-5442000D02*
X16054000Y-5442000D01*
X15904000Y-7192000D02*
X15904000Y-7492000D01*
X15754000Y-7342000D02*
X16054000Y-7342000D01*
X15904000Y-9092000D02*
X15904000Y-9392000D01*
X15754000Y-9242000D02*
X16054000Y-9242000D01*
X15904000Y-10992000D02*
X15904000Y-11292000D01*
X15754000Y-11142000D02*
X16054000Y-11142000D01*
X16031000Y-5546000D02*
X16031000Y-5846000D01*
X15881000Y-5696000D02*
X16181000Y-5696000D01*
X16031000Y-7446000D02*
X16031000Y-7746000D01*
X15881000Y-7596000D02*
X16181000Y-7596000D01*
X16031000Y-9346000D02*
X16031000Y-9646000D01*
X15881000Y-9496000D02*
X16181000Y-9496000D01*
X16031000Y-11246000D02*
X16031000Y-11546000D01*
X15881000Y-11396000D02*
X16181000Y-11396000D01*
X16219000Y-14046000D02*
X16219000Y-14346000D01*
X16069000Y-14196000D02*
X16369000Y-14196000D01*
X16346000Y-13792000D02*
X16346000Y-14092000D01*
X16196000Y-13942000D02*
X16496000Y-13942000D01*
X16854000Y-13792000D02*
X16854000Y-14092000D01*
X16704000Y-13942000D02*
X17004000Y-13942000D01*
X16981000Y-14046000D02*
X16981000Y-14346000D01*
X16831000Y-14196000D02*
X17131000Y-14196000D01*
X17169000Y-5546000D02*
X17169000Y-5846000D01*
X17019000Y-5696000D02*
X17319000Y-5696000D01*
X17169000Y-7446000D02*
X17169000Y-7746000D01*
X17019000Y-7596000D02*
X17319000Y-7596000D01*
X17169000Y-9350000D02*
X17169000Y-9650000D01*
X17019000Y-9500000D02*
X17319000Y-9500000D01*
X17169000Y-11246000D02*
X17169000Y-11546000D01*
X17019000Y-11396000D02*
X17319000Y-11396000D01*
X17296000Y-5292000D02*
X17296000Y-5592000D01*
X17146000Y-5442000D02*
X17446000Y-5442000D01*
X17296000Y-7192000D02*
X17296000Y-7492000D01*
X17146000Y-7342000D02*
X17446000Y-7342000D01*
X17296000Y-9096000D02*
X17296000Y-9396000D01*
X17146000Y-9246000D02*
X17446000Y-9246000D01*
X17296000Y-10992000D02*
X17296000Y-11292000D01*
X17146000Y-11142000D02*
X17446000Y-11142000D01*
X17804000Y-5292000D02*
X17804000Y-5592000D01*
X17654000Y-5442000D02*
X17954000Y-5442000D01*
X17804000Y-7192000D02*
X17804000Y-7492000D01*
X17654000Y-7342000D02*
X17954000Y-7342000D01*
X17804000Y-9096000D02*
X17804000Y-9396000D01*
X17654000Y-9246000D02*
X17954000Y-9246000D01*
X17804000Y-10992000D02*
X17804000Y-11292000D01*
X17654000Y-11142000D02*
X17954000Y-11142000D01*
X17931000Y-5546000D02*
X17931000Y-5846000D01*
X17781000Y-5696000D02*
X18081000Y-5696000D01*
X17931000Y-7446000D02*
X17931000Y-7746000D01*
X17781000Y-7596000D02*
X18081000Y-7596000D01*
X17931000Y-9350000D02*
X17931000Y-9650000D01*
X17781000Y-9500000D02*
X18081000Y-9500000D01*
X17931000Y-11246000D02*
X17931000Y-11546000D01*
X17781000Y-11396000D02*
X18081000Y-11396000D01*
X18119000Y-13821000D02*
X18119000Y-14121000D01*
X17969000Y-13971000D02*
X18269000Y-13971000D01*
X18246000Y-13567000D02*
X18246000Y-13867000D01*
X18096000Y-13717000D02*
X18396000Y-13717000D01*
X18754000Y-13567000D02*
X18754000Y-13867000D01*
X18604000Y-13717000D02*
X18904000Y-13717000D01*
X18881000Y-13821000D02*
X18881000Y-14121000D01*
X18731000Y-13971000D02*
X19031000Y-13971000D01*
X20019000Y-14046000D02*
X20019000Y-14346000D01*
X19869000Y-14196000D02*
X20169000Y-14196000D01*
X20146000Y-13792000D02*
X20146000Y-14092000D01*
X19996000Y-13942000D02*
X20296000Y-13942000D01*
X20654000Y-13792000D02*
X20654000Y-14092000D01*
X20504000Y-13942000D02*
X20804000Y-13942000D01*
X20781000Y-14046000D02*
X20781000Y-14346000D01*
X20631000Y-14196000D02*
X20931000Y-14196000D01*
X6913138Y-5063138D02*
X6913138Y-4836862D01*
X6686862Y-4836862D01*
X6686862Y-5063138D01*
X6913138Y-5063138D01*
X6913138Y-13613138D02*
X6913138Y-13386862D01*
X6686862Y-13386862D01*
X6686862Y-13613138D01*
X6913138Y-13613138D01*
X11613138Y-13113138D02*
X11613138Y-12886862D01*
X11386862Y-12886862D01*
X11386862Y-13113138D01*
X11613138Y-13113138D01*
X20363138Y-6113138D02*
X20363138Y-5886862D01*
X20136862Y-5886862D01*
X20136862Y-6113138D01*
X20363138Y-6113138D01*
X21963138Y-15013138D02*
X21963138Y-14786862D01*
X21736862Y-14786862D01*
X21736862Y-15013138D01*
X21963138Y-15013138D01*
X7800000Y-8950000D02*
X8000000Y-8750000D01*
X7800000Y-8550000D01*
X7600000Y-8750000D01*
X7800000Y-8950000D01*
X7800000Y-10850000D02*
X8000000Y-10650000D01*
X7800000Y-10450000D01*
X7600000Y-10650000D01*
X7800000Y-10850000D01*
X7800000Y-12750000D02*
X8000000Y-12550000D01*
X7800000Y-12350000D01*
X7600000Y-12550000D01*
X7800000Y-12750000D01*
X7800000Y-14650000D02*
X8000000Y-14450000D01*
X7800000Y-14250000D01*
X7600000Y-14450000D01*
X7800000Y-14650000D01*
X8025000Y-7050000D02*
X8225000Y-6850000D01*
X8025000Y-6650000D01*
X7825000Y-6850000D01*
X8025000Y-7050000D01*
X9950000Y-6600000D02*
X10150000Y-6400000D01*
X9950000Y-6200000D01*
X9750000Y-6400000D01*
X9950000Y-6600000D01*
X9950000Y-8500000D02*
X10150000Y-8300000D01*
X9950000Y-8100000D01*
X9750000Y-8300000D01*
X9950000Y-8500000D01*
X9950000Y-10400000D02*
X10150000Y-10200000D01*
X9950000Y-10000000D01*
X9750000Y-10200000D01*
X9950000Y-10400000D01*
X9950000Y-12300000D02*
X10150000Y-12100000D01*
X9950000Y-11900000D01*
X9750000Y-12100000D01*
X9950000Y-12300000D01*
X9950000Y-14650000D02*
X10150000Y-14450000D01*
X9950000Y-14250000D01*
X9750000Y-14450000D01*
X9950000Y-14650000D01*
X11850000Y-5800000D02*
X12050000Y-5600000D01*
X11850000Y-5400000D01*
X11650000Y-5600000D01*
X11850000Y-5800000D01*
X11850000Y-7700000D02*
X12050000Y-7500000D01*
X11850000Y-7300000D01*
X11650000Y-7500000D01*
X11850000Y-7700000D01*
X11850000Y-9600000D02*
X12050000Y-9400000D01*
X11850000Y-9200000D01*
X11650000Y-9400000D01*
X11850000Y-9600000D01*
X11850000Y-11500000D02*
X12050000Y-11300000D01*
X11850000Y-11100000D01*
X11650000Y-11300000D01*
X11850000Y-11500000D01*
X13750000Y-5600000D02*
X13950000Y-5400000D01*
X13750000Y-5200000D01*
X13550000Y-5400000D01*
X13750000Y-5600000D01*
X13750000Y-7500000D02*
X13950000Y-7300000D01*
X13750000Y-7100000D01*
X13550000Y-7300000D01*
X13750000Y-7500000D01*
X13750000Y-9400000D02*
X13950000Y-9200000D01*
X13750000Y-9000000D01*
X13550000Y-9200000D01*
X13750000Y-9400000D01*
X13750000Y-11300000D02*
X13950000Y-11100000D01*
X13750000Y-10900000D01*
X13550000Y-11100000D01*
X13750000Y-11300000D01*
X14700000Y-14650000D02*
X14900000Y-14450000D01*
X14700000Y-14250000D01*
X14500000Y-14450000D01*
X14700000Y-14650000D01*
X15650000Y-6150000D02*
X15850000Y-5950000D01*
X15650000Y-5750000D01*
X15450000Y-5950000D01*
X15650000Y-6150000D01*
X15650000Y-8050000D02*
X15850000Y-7850000D01*
X15650000Y-7650000D01*
X15450000Y-7850000D01*
X15650000Y-8050000D01*
X15650000Y-9950000D02*
X15850000Y-9750000D01*
X15650000Y-9550000D01*
X15450000Y-9750000D01*
X15650000Y-9950000D01*
X15650000Y-11850000D02*
X15850000Y-11650000D01*
X15650000Y-11450000D01*
X15450000Y-11650000D01*
X15650000Y-11850000D01*
X16600000Y-14650000D02*
X16800000Y-14450000D01*
X16600000Y-14250000D01*
X16400000Y-14450000D01*
X16600000Y-14650000D01*
X17550000Y-6150000D02*
X17750000Y-5950000D01*
X17550000Y-5750000D01*
X17350000Y-5950000D01*
X17550000Y-6150000D01*
X17550000Y-8050000D02*
X17750000Y-7850000D01*
X17550000Y-7650000D01*
X17350000Y-7850000D01*
X17550000Y-8050000D01*
X17550000Y-9954000D02*
X17750000Y-9754000D01*
X17550000Y-9554000D01*
X17350000Y-9754000D01*
X17550000Y-9954000D01*
X17550000Y-11850000D02*
X17750000Y-11650000D01*
X17550000Y-11450000D01*
X17350000Y-11650000D01*
X17550000Y-11850000D01*
X18500000Y-14425000D02*
X18700000Y-14225000D01*
X18500000Y-14025000D01*
X18300000Y-14225000D01*
X18500000Y-14425000D01*
X20400000Y-14650000D02*
X20600000Y-14450000D01*
X20400000Y-14250000D01*
X20200000Y-14450000D01*
X20400000Y-14650000D01*
D12*
X6483928Y-15968214D02*
X6483928Y-15668214D01*
X6555357Y-15668214D01*
X6598214Y-15682500D01*
X6626786Y-15711071D01*
X6641071Y-15739643D01*
X6655357Y-15796786D01*
X6655357Y-15839643D01*
X6641071Y-15896786D01*
X6626786Y-15925357D01*
X6598214Y-15953929D01*
X6555357Y-15968214D01*
X6483928Y-15968214D01*
X6783928Y-15968214D02*
X6783928Y-15768214D01*
X6783928Y-15825357D02*
X6798214Y-15796786D01*
X6812500Y-15782500D01*
X6841071Y-15768214D01*
X6869643Y-15768214D01*
X6969643Y-15968214D02*
X6969643Y-15768214D01*
X6969643Y-15668214D02*
X6955357Y-15682500D01*
X6969643Y-15696786D01*
X6983928Y-15682500D01*
X6969643Y-15668214D01*
X6969643Y-15696786D01*
X7155357Y-15968214D02*
X7126786Y-15953929D01*
X7112500Y-15925357D01*
X7112500Y-15668214D01*
X7312500Y-15968214D02*
X7283928Y-15953929D01*
X7269643Y-15925357D01*
X7269643Y-15668214D01*
X7655357Y-15968214D02*
X7655357Y-15668214D01*
X7755357Y-15882500D01*
X7855357Y-15668214D01*
X7855357Y-15968214D01*
X8126786Y-15968214D02*
X8126786Y-15811071D01*
X8112500Y-15782500D01*
X8083928Y-15768214D01*
X8026786Y-15768214D01*
X7998214Y-15782500D01*
X8126786Y-15953929D02*
X8098214Y-15968214D01*
X8026786Y-15968214D01*
X7998214Y-15953929D01*
X7983928Y-15925357D01*
X7983928Y-15896786D01*
X7998214Y-15868214D01*
X8026786Y-15853929D01*
X8098214Y-15853929D01*
X8126786Y-15839643D01*
X8269643Y-15768214D02*
X8269643Y-16068214D01*
X8269643Y-15782500D02*
X8298214Y-15768214D01*
X8355357Y-15768214D01*
X8383928Y-15782500D01*
X8398214Y-15796786D01*
X8412500Y-15825357D01*
X8412500Y-15911071D01*
X8398214Y-15939643D01*
X8383928Y-15953929D01*
X8355357Y-15968214D01*
X8298214Y-15968214D01*
X8269643Y-15953929D01*
X8541071Y-15939643D02*
X8555357Y-15953929D01*
X8541071Y-15968214D01*
X8526786Y-15953929D01*
X8541071Y-15939643D01*
X8541071Y-15968214D01*
X8541071Y-15782500D02*
X8555357Y-15796786D01*
X8541071Y-15811071D01*
X8526786Y-15796786D01*
X8541071Y-15782500D01*
X8541071Y-15811071D01*
X6107500Y-16417500D02*
X6197500Y-16507500D01*
X6197500Y-16417500D02*
X6107500Y-16507500D01*
X6541071Y-16298214D02*
X6569643Y-16298214D01*
X6598214Y-16312500D01*
X6612500Y-16326786D01*
X6626786Y-16355357D01*
X6641071Y-16412500D01*
X6641071Y-16483929D01*
X6626786Y-16541071D01*
X6612500Y-16569643D01*
X6598214Y-16583929D01*
X6569643Y-16598214D01*
X6541071Y-16598214D01*
X6512500Y-16583929D01*
X6498214Y-16569643D01*
X6483928Y-16541071D01*
X6469643Y-16483929D01*
X6469643Y-16412500D01*
X6483928Y-16355357D01*
X6498214Y-16326786D01*
X6512500Y-16312500D01*
X6541071Y-16298214D01*
X6769643Y-16569643D02*
X6783928Y-16583929D01*
X6769643Y-16598214D01*
X6755357Y-16583929D01*
X6769643Y-16569643D01*
X6769643Y-16598214D01*
X6926786Y-16598214D02*
X6983928Y-16598214D01*
X7012500Y-16583929D01*
X7026786Y-16569643D01*
X7055357Y-16526786D01*
X7069643Y-16469643D01*
X7069643Y-16355357D01*
X7055357Y-16326786D01*
X7041071Y-16312500D01*
X7012500Y-16298214D01*
X6955357Y-16298214D01*
X6926786Y-16312500D01*
X6912500Y-16326786D01*
X6898214Y-16355357D01*
X6898214Y-16426786D01*
X6912500Y-16455357D01*
X6926786Y-16469643D01*
X6955357Y-16483929D01*
X7012500Y-16483929D01*
X7041071Y-16469643D01*
X7055357Y-16455357D01*
X7069643Y-16426786D01*
X7255357Y-16298214D02*
X7283928Y-16298214D01*
X7312500Y-16312500D01*
X7326786Y-16326786D01*
X7341071Y-16355357D01*
X7355357Y-16412500D01*
X7355357Y-16483929D01*
X7341071Y-16541071D01*
X7326786Y-16569643D01*
X7312500Y-16583929D01*
X7283928Y-16598214D01*
X7255357Y-16598214D01*
X7226786Y-16583929D01*
X7212500Y-16569643D01*
X7198214Y-16541071D01*
X7183928Y-16483929D01*
X7183928Y-16412500D01*
X7198214Y-16355357D01*
X7212500Y-16326786D01*
X7226786Y-16312500D01*
X7255357Y-16298214D01*
X7541071Y-16298214D02*
X7569643Y-16298214D01*
X7598214Y-16312500D01*
X7612500Y-16326786D01*
X7626786Y-16355357D01*
X7641071Y-16412500D01*
X7641071Y-16483929D01*
X7626786Y-16541071D01*
X7612500Y-16569643D01*
X7598214Y-16583929D01*
X7569643Y-16598214D01*
X7541071Y-16598214D01*
X7512500Y-16583929D01*
X7498214Y-16569643D01*
X7483928Y-16541071D01*
X7469643Y-16483929D01*
X7469643Y-16412500D01*
X7483928Y-16355357D01*
X7498214Y-16326786D01*
X7512500Y-16312500D01*
X7541071Y-16298214D01*
X7769643Y-16598214D02*
X7769643Y-16398214D01*
X7769643Y-16426786D02*
X7783928Y-16412500D01*
X7812500Y-16398214D01*
X7855357Y-16398214D01*
X7883928Y-16412500D01*
X7898214Y-16441071D01*
X7898214Y-16598214D01*
X7898214Y-16441071D02*
X7912500Y-16412500D01*
X7941071Y-16398214D01*
X7983928Y-16398214D01*
X8012500Y-16412500D01*
X8026786Y-16441071D01*
X8026786Y-16598214D01*
X8169643Y-16598214D02*
X8169643Y-16398214D01*
X8169643Y-16426786D02*
X8183928Y-16412500D01*
X8212500Y-16398214D01*
X8255357Y-16398214D01*
X8283928Y-16412500D01*
X8298214Y-16441071D01*
X8298214Y-16598214D01*
X8298214Y-16441071D02*
X8312500Y-16412500D01*
X8341071Y-16398214D01*
X8383928Y-16398214D01*
X8412500Y-16412500D01*
X8426786Y-16441071D01*
X8426786Y-16598214D01*
X9012500Y-16283929D02*
X8755357Y-16669643D01*
X9398214Y-16298214D02*
X9426786Y-16298214D01*
X9455357Y-16312500D01*
X9469643Y-16326786D01*
X9483928Y-16355357D01*
X9498214Y-16412500D01*
X9498214Y-16483929D01*
X9483928Y-16541071D01*
X9469643Y-16569643D01*
X9455357Y-16583929D01*
X9426786Y-16598214D01*
X9398214Y-16598214D01*
X9369643Y-16583929D01*
X9355357Y-16569643D01*
X9341071Y-16541071D01*
X9326786Y-16483929D01*
X9326786Y-16412500D01*
X9341071Y-16355357D01*
X9355357Y-16326786D01*
X9369643Y-16312500D01*
X9398214Y-16298214D01*
X9626786Y-16569643D02*
X9641071Y-16583929D01*
X9626786Y-16598214D01*
X9612500Y-16583929D01*
X9626786Y-16569643D01*
X9626786Y-16598214D01*
X9826786Y-16298214D02*
X9855357Y-16298214D01*
X9883928Y-16312500D01*
X9898214Y-16326786D01*
X9912500Y-16355357D01*
X9926786Y-16412500D01*
X9926786Y-16483929D01*
X9912500Y-16541071D01*
X9898214Y-16569643D01*
X9883928Y-16583929D01*
X9855357Y-16598214D01*
X9826786Y-16598214D01*
X9798214Y-16583929D01*
X9783928Y-16569643D01*
X9769643Y-16541071D01*
X9755357Y-16483929D01*
X9755357Y-16412500D01*
X9769643Y-16355357D01*
X9783928Y-16326786D01*
X9798214Y-16312500D01*
X9826786Y-16298214D01*
X10026786Y-16298214D02*
X10212500Y-16298214D01*
X10112500Y-16412500D01*
X10155357Y-16412500D01*
X10183928Y-16426786D01*
X10198214Y-16441071D01*
X10212500Y-16469643D01*
X10212500Y-16541071D01*
X10198214Y-16569643D01*
X10183928Y-16583929D01*
X10155357Y-16598214D01*
X10069643Y-16598214D01*
X10041071Y-16583929D01*
X10026786Y-16569643D01*
X10483928Y-16298214D02*
X10341071Y-16298214D01*
X10326786Y-16441071D01*
X10341071Y-16426786D01*
X10369643Y-16412500D01*
X10441071Y-16412500D01*
X10469643Y-16426786D01*
X10483928Y-16441071D01*
X10498214Y-16469643D01*
X10498214Y-16541071D01*
X10483928Y-16569643D01*
X10469643Y-16583929D01*
X10441071Y-16598214D01*
X10369643Y-16598214D01*
X10341071Y-16583929D01*
X10326786Y-16569643D01*
X10755357Y-16398214D02*
X10755357Y-16598214D01*
X10683928Y-16283929D02*
X10612500Y-16498214D01*
X10798214Y-16498214D01*
X10898214Y-16298214D02*
X10898214Y-16355357D01*
X11012500Y-16298214D02*
X11012500Y-16355357D01*
X11455357Y-16712500D02*
X11441071Y-16698214D01*
X11412500Y-16655357D01*
X11398214Y-16626786D01*
X11383928Y-16583929D01*
X11369643Y-16512500D01*
X11369643Y-16455357D01*
X11383928Y-16383929D01*
X11398214Y-16341071D01*
X11412500Y-16312500D01*
X11441071Y-16269643D01*
X11455357Y-16255357D01*
X11555357Y-16326786D02*
X11569643Y-16312500D01*
X11598214Y-16298214D01*
X11669643Y-16298214D01*
X11698214Y-16312500D01*
X11712500Y-16326786D01*
X11726786Y-16355357D01*
X11726786Y-16383929D01*
X11712500Y-16426786D01*
X11541071Y-16598214D01*
X11726786Y-16598214D01*
X12083928Y-16598214D02*
X12083928Y-16298214D01*
X12212500Y-16598214D02*
X12212500Y-16441071D01*
X12198214Y-16412500D01*
X12169643Y-16398214D01*
X12126786Y-16398214D01*
X12098214Y-16412500D01*
X12083928Y-16426786D01*
X12398214Y-16598214D02*
X12369643Y-16583929D01*
X12355357Y-16569643D01*
X12341071Y-16541071D01*
X12341071Y-16455357D01*
X12355357Y-16426786D01*
X12369643Y-16412500D01*
X12398214Y-16398214D01*
X12441071Y-16398214D01*
X12469643Y-16412500D01*
X12483928Y-16426786D01*
X12498214Y-16455357D01*
X12498214Y-16541071D01*
X12483928Y-16569643D01*
X12469643Y-16583929D01*
X12441071Y-16598214D01*
X12398214Y-16598214D01*
X12669643Y-16598214D02*
X12641071Y-16583929D01*
X12626786Y-16555357D01*
X12626786Y-16298214D01*
X12898214Y-16583929D02*
X12869643Y-16598214D01*
X12812500Y-16598214D01*
X12783928Y-16583929D01*
X12769643Y-16555357D01*
X12769643Y-16441071D01*
X12783928Y-16412500D01*
X12812500Y-16398214D01*
X12869643Y-16398214D01*
X12898214Y-16412500D01*
X12912500Y-16441071D01*
X12912500Y-16469643D01*
X12769643Y-16498214D01*
X13026786Y-16583929D02*
X13055357Y-16598214D01*
X13112500Y-16598214D01*
X13141071Y-16583929D01*
X13155357Y-16555357D01*
X13155357Y-16541071D01*
X13141071Y-16512500D01*
X13112500Y-16498214D01*
X13069643Y-16498214D01*
X13041071Y-16483929D01*
X13026786Y-16455357D01*
X13026786Y-16441071D01*
X13041071Y-16412500D01*
X13069643Y-16398214D01*
X13112500Y-16398214D01*
X13141071Y-16412500D01*
X13255357Y-16712500D02*
X13269643Y-16698214D01*
X13298214Y-16655357D01*
X13312500Y-16626786D01*
X13326786Y-16583929D01*
X13341071Y-16512500D01*
X13341071Y-16455357D01*
X13326786Y-16383929D01*
X13312500Y-16341071D01*
X13298214Y-16312500D01*
X13269643Y-16269643D01*
X13255357Y-16255357D01*
X13798214Y-16712500D02*
X13783928Y-16698214D01*
X13755357Y-16655357D01*
X13741071Y-16626786D01*
X13726786Y-16583929D01*
X13712500Y-16512500D01*
X13712500Y-16455357D01*
X13726786Y-16383929D01*
X13741071Y-16341071D01*
X13755357Y-16312500D01*
X13783928Y-16269643D01*
X13798214Y-16255357D01*
X13912500Y-16398214D02*
X13912500Y-16598214D01*
X13912500Y-16426786D02*
X13926786Y-16412500D01*
X13955357Y-16398214D01*
X13998214Y-16398214D01*
X14026786Y-16412500D01*
X14041071Y-16441071D01*
X14041071Y-16598214D01*
X14226786Y-16598214D02*
X14198214Y-16583929D01*
X14183928Y-16569643D01*
X14169643Y-16541071D01*
X14169643Y-16455357D01*
X14183928Y-16426786D01*
X14198214Y-16412500D01*
X14226786Y-16398214D01*
X14269643Y-16398214D01*
X14298214Y-16412500D01*
X14312500Y-16426786D01*
X14326786Y-16455357D01*
X14326786Y-16541071D01*
X14312500Y-16569643D01*
X14298214Y-16583929D01*
X14269643Y-16598214D01*
X14226786Y-16598214D01*
X14412500Y-16398214D02*
X14526786Y-16398214D01*
X14455357Y-16298214D02*
X14455357Y-16555357D01*
X14469643Y-16583929D01*
X14498214Y-16598214D01*
X14526786Y-16598214D01*
X14855357Y-16398214D02*
X14855357Y-16698214D01*
X14855357Y-16412500D02*
X14883928Y-16398214D01*
X14941071Y-16398214D01*
X14969643Y-16412500D01*
X14983928Y-16426786D01*
X14998214Y-16455357D01*
X14998214Y-16541071D01*
X14983928Y-16569643D01*
X14969643Y-16583929D01*
X14941071Y-16598214D01*
X14883928Y-16598214D01*
X14855357Y-16583929D01*
X15169643Y-16598214D02*
X15141071Y-16583929D01*
X15126786Y-16555357D01*
X15126786Y-16298214D01*
X15412500Y-16598214D02*
X15412500Y-16441071D01*
X15398214Y-16412500D01*
X15369643Y-16398214D01*
X15312500Y-16398214D01*
X15283928Y-16412500D01*
X15412500Y-16583929D02*
X15383928Y-16598214D01*
X15312500Y-16598214D01*
X15283928Y-16583929D01*
X15269643Y-16555357D01*
X15269643Y-16526786D01*
X15283928Y-16498214D01*
X15312500Y-16483929D01*
X15383928Y-16483929D01*
X15412500Y-16469643D01*
X15512500Y-16398214D02*
X15626786Y-16398214D01*
X15555357Y-16298214D02*
X15555357Y-16555357D01*
X15569643Y-16583929D01*
X15598214Y-16598214D01*
X15626786Y-16598214D01*
X15841071Y-16583929D02*
X15812500Y-16598214D01*
X15755357Y-16598214D01*
X15726786Y-16583929D01*
X15712500Y-16555357D01*
X15712500Y-16441071D01*
X15726786Y-16412500D01*
X15755357Y-16398214D01*
X15812500Y-16398214D01*
X15841071Y-16412500D01*
X15855357Y-16441071D01*
X15855357Y-16469643D01*
X15712500Y-16498214D01*
X16112500Y-16598214D02*
X16112500Y-16298214D01*
X16112500Y-16583929D02*
X16083928Y-16598214D01*
X16026786Y-16598214D01*
X15998214Y-16583929D01*
X15983928Y-16569643D01*
X15969643Y-16541071D01*
X15969643Y-16455357D01*
X15983928Y-16426786D01*
X15998214Y-16412500D01*
X16026786Y-16398214D01*
X16083928Y-16398214D01*
X16112500Y-16412500D01*
X16226786Y-16712500D02*
X16241071Y-16698214D01*
X16269643Y-16655357D01*
X16283928Y-16626786D01*
X16298214Y-16583929D01*
X16312500Y-16512500D01*
X16312500Y-16455357D01*
X16298214Y-16383929D01*
X16283928Y-16341071D01*
X16269643Y-16312500D01*
X16241071Y-16269643D01*
X16226786Y-16255357D01*
X6197500Y-16858500D02*
G75*
G03*
X6197500Y-16858500I-85000J0D01*
G01*
X6641071Y-16994214D02*
X6469643Y-16994214D01*
X6555357Y-16994214D02*
X6555357Y-16694214D01*
X6526786Y-16737071D01*
X6498214Y-16765643D01*
X6469643Y-16779929D01*
X6769643Y-16965643D02*
X6783928Y-16979929D01*
X6769643Y-16994214D01*
X6755357Y-16979929D01*
X6769643Y-16965643D01*
X6769643Y-16994214D01*
X6883928Y-16694214D02*
X7083928Y-16694214D01*
X6955357Y-16994214D01*
X7255357Y-16694214D02*
X7283928Y-16694214D01*
X7312500Y-16708500D01*
X7326786Y-16722786D01*
X7341071Y-16751357D01*
X7355357Y-16808500D01*
X7355357Y-16879929D01*
X7341071Y-16937072D01*
X7326786Y-16965643D01*
X7312500Y-16979929D01*
X7283928Y-16994214D01*
X7255357Y-16994214D01*
X7226786Y-16979929D01*
X7212500Y-16965643D01*
X7198214Y-16937072D01*
X7183928Y-16879929D01*
X7183928Y-16808500D01*
X7198214Y-16751357D01*
X7212500Y-16722786D01*
X7226786Y-16708500D01*
X7255357Y-16694214D01*
X7541071Y-16694214D02*
X7569643Y-16694214D01*
X7598214Y-16708500D01*
X7612500Y-16722786D01*
X7626786Y-16751357D01*
X7641071Y-16808500D01*
X7641071Y-16879929D01*
X7626786Y-16937072D01*
X7612500Y-16965643D01*
X7598214Y-16979929D01*
X7569643Y-16994214D01*
X7541071Y-16994214D01*
X7512500Y-16979929D01*
X7498214Y-16965643D01*
X7483928Y-16937072D01*
X7469643Y-16879929D01*
X7469643Y-16808500D01*
X7483928Y-16751357D01*
X7498214Y-16722786D01*
X7512500Y-16708500D01*
X7541071Y-16694214D01*
X7769643Y-16994214D02*
X7769643Y-16794214D01*
X7769643Y-16822786D02*
X7783928Y-16808500D01*
X7812500Y-16794214D01*
X7855357Y-16794214D01*
X7883928Y-16808500D01*
X7898214Y-16837072D01*
X7898214Y-16994214D01*
X7898214Y-16837072D02*
X7912500Y-16808500D01*
X7941071Y-16794214D01*
X7983928Y-16794214D01*
X8012500Y-16808500D01*
X8026786Y-16837072D01*
X8026786Y-16994214D01*
X8169643Y-16994214D02*
X8169643Y-16794214D01*
X8169643Y-16822786D02*
X8183928Y-16808500D01*
X8212500Y-16794214D01*
X8255357Y-16794214D01*
X8283928Y-16808500D01*
X8298214Y-16837072D01*
X8298214Y-16994214D01*
X8298214Y-16837072D02*
X8312500Y-16808500D01*
X8341071Y-16794214D01*
X8383928Y-16794214D01*
X8412500Y-16808500D01*
X8426786Y-16837072D01*
X8426786Y-16994214D01*
X9012500Y-16679929D02*
X8755357Y-17065643D01*
X9398214Y-16694214D02*
X9426786Y-16694214D01*
X9455357Y-16708500D01*
X9469643Y-16722786D01*
X9483928Y-16751357D01*
X9498214Y-16808500D01*
X9498214Y-16879929D01*
X9483928Y-16937072D01*
X9469643Y-16965643D01*
X9455357Y-16979929D01*
X9426786Y-16994214D01*
X9398214Y-16994214D01*
X9369643Y-16979929D01*
X9355357Y-16965643D01*
X9341071Y-16937072D01*
X9326786Y-16879929D01*
X9326786Y-16808500D01*
X9341071Y-16751357D01*
X9355357Y-16722786D01*
X9369643Y-16708500D01*
X9398214Y-16694214D01*
X9626786Y-16965643D02*
X9641071Y-16979929D01*
X9626786Y-16994214D01*
X9612500Y-16979929D01*
X9626786Y-16965643D01*
X9626786Y-16994214D01*
X9826786Y-16694214D02*
X9855357Y-16694214D01*
X9883928Y-16708500D01*
X9898214Y-16722786D01*
X9912500Y-16751357D01*
X9926786Y-16808500D01*
X9926786Y-16879929D01*
X9912500Y-16937072D01*
X9898214Y-16965643D01*
X9883928Y-16979929D01*
X9855357Y-16994214D01*
X9826786Y-16994214D01*
X9798214Y-16979929D01*
X9783928Y-16965643D01*
X9769643Y-16937072D01*
X9755357Y-16879929D01*
X9755357Y-16808500D01*
X9769643Y-16751357D01*
X9783928Y-16722786D01*
X9798214Y-16708500D01*
X9826786Y-16694214D01*
X10183928Y-16694214D02*
X10126786Y-16694214D01*
X10098214Y-16708500D01*
X10083928Y-16722786D01*
X10055357Y-16765643D01*
X10041071Y-16822786D01*
X10041071Y-16937072D01*
X10055357Y-16965643D01*
X10069643Y-16979929D01*
X10098214Y-16994214D01*
X10155357Y-16994214D01*
X10183928Y-16979929D01*
X10198214Y-16965643D01*
X10212500Y-16937072D01*
X10212500Y-16865643D01*
X10198214Y-16837072D01*
X10183928Y-16822786D01*
X10155357Y-16808500D01*
X10098214Y-16808500D01*
X10069643Y-16822786D01*
X10055357Y-16837072D01*
X10041071Y-16865643D01*
X10469643Y-16694214D02*
X10412500Y-16694214D01*
X10383928Y-16708500D01*
X10369643Y-16722786D01*
X10341071Y-16765643D01*
X10326786Y-16822786D01*
X10326786Y-16937072D01*
X10341071Y-16965643D01*
X10355357Y-16979929D01*
X10383928Y-16994214D01*
X10441071Y-16994214D01*
X10469643Y-16979929D01*
X10483928Y-16965643D01*
X10498214Y-16937072D01*
X10498214Y-16865643D01*
X10483928Y-16837072D01*
X10469643Y-16822786D01*
X10441071Y-16808500D01*
X10383928Y-16808500D01*
X10355357Y-16822786D01*
X10341071Y-16837072D01*
X10326786Y-16865643D01*
X10641071Y-16994214D02*
X10698214Y-16994214D01*
X10726786Y-16979929D01*
X10741071Y-16965643D01*
X10769643Y-16922786D01*
X10783928Y-16865643D01*
X10783928Y-16751357D01*
X10769643Y-16722786D01*
X10755357Y-16708500D01*
X10726786Y-16694214D01*
X10669643Y-16694214D01*
X10641071Y-16708500D01*
X10626786Y-16722786D01*
X10612500Y-16751357D01*
X10612500Y-16822786D01*
X10626786Y-16851357D01*
X10641071Y-16865643D01*
X10669643Y-16879929D01*
X10726786Y-16879929D01*
X10755357Y-16865643D01*
X10769643Y-16851357D01*
X10783928Y-16822786D01*
X10898214Y-16694214D02*
X10898214Y-16751357D01*
X11012500Y-16694214D02*
X11012500Y-16751357D01*
X11455357Y-17108500D02*
X11441071Y-17094214D01*
X11412500Y-17051357D01*
X11398214Y-17022786D01*
X11383928Y-16979929D01*
X11369643Y-16908500D01*
X11369643Y-16851357D01*
X11383928Y-16779929D01*
X11398214Y-16737071D01*
X11412500Y-16708500D01*
X11441071Y-16665643D01*
X11455357Y-16651357D01*
X11698214Y-16694214D02*
X11641071Y-16694214D01*
X11612500Y-16708500D01*
X11598214Y-16722786D01*
X11569643Y-16765643D01*
X11555357Y-16822786D01*
X11555357Y-16937072D01*
X11569643Y-16965643D01*
X11583928Y-16979929D01*
X11612500Y-16994214D01*
X11669643Y-16994214D01*
X11698214Y-16979929D01*
X11712500Y-16965643D01*
X11726786Y-16937072D01*
X11726786Y-16865643D01*
X11712500Y-16837072D01*
X11698214Y-16822786D01*
X11669643Y-16808500D01*
X11612500Y-16808500D01*
X11583928Y-16822786D01*
X11569643Y-16837072D01*
X11555357Y-16865643D01*
X11912500Y-16694214D02*
X11941071Y-16694214D01*
X11969643Y-16708500D01*
X11983928Y-16722786D01*
X11998214Y-16751357D01*
X12012500Y-16808500D01*
X12012500Y-16879929D01*
X11998214Y-16937072D01*
X11983928Y-16965643D01*
X11969643Y-16979929D01*
X11941071Y-16994214D01*
X11912500Y-16994214D01*
X11883928Y-16979929D01*
X11869643Y-16965643D01*
X11855357Y-16937072D01*
X11841071Y-16879929D01*
X11841071Y-16808500D01*
X11855357Y-16751357D01*
X11869643Y-16722786D01*
X11883928Y-16708500D01*
X11912500Y-16694214D01*
X12369643Y-16994214D02*
X12369643Y-16694214D01*
X12498214Y-16994214D02*
X12498214Y-16837072D01*
X12483928Y-16808500D01*
X12455357Y-16794214D01*
X12412500Y-16794214D01*
X12383928Y-16808500D01*
X12369643Y-16822786D01*
X12683928Y-16994214D02*
X12655357Y-16979929D01*
X12641071Y-16965643D01*
X12626786Y-16937072D01*
X12626786Y-16851357D01*
X12641071Y-16822786D01*
X12655357Y-16808500D01*
X12683928Y-16794214D01*
X12726786Y-16794214D01*
X12755357Y-16808500D01*
X12769643Y-16822786D01*
X12783928Y-16851357D01*
X12783928Y-16937072D01*
X12769643Y-16965643D01*
X12755357Y-16979929D01*
X12726786Y-16994214D01*
X12683928Y-16994214D01*
X12955357Y-16994214D02*
X12926786Y-16979929D01*
X12912500Y-16951357D01*
X12912500Y-16694214D01*
X13183928Y-16979929D02*
X13155357Y-16994214D01*
X13098214Y-16994214D01*
X13069643Y-16979929D01*
X13055357Y-16951357D01*
X13055357Y-16837072D01*
X13069643Y-16808500D01*
X13098214Y-16794214D01*
X13155357Y-16794214D01*
X13183928Y-16808500D01*
X13198214Y-16837072D01*
X13198214Y-16865643D01*
X13055357Y-16894214D01*
X13312500Y-16979929D02*
X13341071Y-16994214D01*
X13398214Y-16994214D01*
X13426786Y-16979929D01*
X13441071Y-16951357D01*
X13441071Y-16937072D01*
X13426786Y-16908500D01*
X13398214Y-16894214D01*
X13355357Y-16894214D01*
X13326786Y-16879929D01*
X13312500Y-16851357D01*
X13312500Y-16837072D01*
X13326786Y-16808500D01*
X13355357Y-16794214D01*
X13398214Y-16794214D01*
X13426786Y-16808500D01*
X13541071Y-17108500D02*
X13555357Y-17094214D01*
X13583928Y-17051357D01*
X13598214Y-17022786D01*
X13612500Y-16979929D01*
X13626786Y-16908500D01*
X13626786Y-16851357D01*
X13612500Y-16779929D01*
X13598214Y-16737071D01*
X13583928Y-16708500D01*
X13555357Y-16665643D01*
X13541071Y-16651357D01*
X14083928Y-17108500D02*
X14069643Y-17094214D01*
X14041071Y-17051357D01*
X14026786Y-17022786D01*
X14012500Y-16979929D01*
X13998214Y-16908500D01*
X13998214Y-16851357D01*
X14012500Y-16779929D01*
X14026786Y-16737071D01*
X14041071Y-16708500D01*
X14069643Y-16665643D01*
X14083928Y-16651357D01*
X14198214Y-16794214D02*
X14198214Y-16994214D01*
X14198214Y-16822786D02*
X14212500Y-16808500D01*
X14241071Y-16794214D01*
X14283928Y-16794214D01*
X14312500Y-16808500D01*
X14326786Y-16837072D01*
X14326786Y-16994214D01*
X14512500Y-16994214D02*
X14483928Y-16979929D01*
X14469643Y-16965643D01*
X14455357Y-16937072D01*
X14455357Y-16851357D01*
X14469643Y-16822786D01*
X14483928Y-16808500D01*
X14512500Y-16794214D01*
X14555357Y-16794214D01*
X14583928Y-16808500D01*
X14598214Y-16822786D01*
X14612500Y-16851357D01*
X14612500Y-16937072D01*
X14598214Y-16965643D01*
X14583928Y-16979929D01*
X14555357Y-16994214D01*
X14512500Y-16994214D01*
X14698214Y-16794214D02*
X14812500Y-16794214D01*
X14741071Y-16694214D02*
X14741071Y-16951357D01*
X14755357Y-16979929D01*
X14783928Y-16994214D01*
X14812500Y-16994214D01*
X15141071Y-16794214D02*
X15141071Y-17094214D01*
X15141071Y-16808500D02*
X15169643Y-16794214D01*
X15226786Y-16794214D01*
X15255357Y-16808500D01*
X15269643Y-16822786D01*
X15283928Y-16851357D01*
X15283928Y-16937072D01*
X15269643Y-16965643D01*
X15255357Y-16979929D01*
X15226786Y-16994214D01*
X15169643Y-16994214D01*
X15141071Y-16979929D01*
X15455357Y-16994214D02*
X15426786Y-16979929D01*
X15412500Y-16951357D01*
X15412500Y-16694214D01*
X15698214Y-16994214D02*
X15698214Y-16837072D01*
X15683928Y-16808500D01*
X15655357Y-16794214D01*
X15598214Y-16794214D01*
X15569643Y-16808500D01*
X15698214Y-16979929D02*
X15669643Y-16994214D01*
X15598214Y-16994214D01*
X15569643Y-16979929D01*
X15555357Y-16951357D01*
X15555357Y-16922786D01*
X15569643Y-16894214D01*
X15598214Y-16879929D01*
X15669643Y-16879929D01*
X15698214Y-16865643D01*
X15798214Y-16794214D02*
X15912500Y-16794214D01*
X15841071Y-16694214D02*
X15841071Y-16951357D01*
X15855357Y-16979929D01*
X15883928Y-16994214D01*
X15912500Y-16994214D01*
X16126786Y-16979929D02*
X16098214Y-16994214D01*
X16041071Y-16994214D01*
X16012500Y-16979929D01*
X15998214Y-16951357D01*
X15998214Y-16837072D01*
X16012500Y-16808500D01*
X16041071Y-16794214D01*
X16098214Y-16794214D01*
X16126786Y-16808500D01*
X16141071Y-16837072D01*
X16141071Y-16865643D01*
X15998214Y-16894214D01*
X16398214Y-16994214D02*
X16398214Y-16694214D01*
X16398214Y-16979929D02*
X16369643Y-16994214D01*
X16312500Y-16994214D01*
X16283928Y-16979929D01*
X16269643Y-16965643D01*
X16255357Y-16937072D01*
X16255357Y-16851357D01*
X16269643Y-16822786D01*
X16283928Y-16808500D01*
X16312500Y-16794214D01*
X16369643Y-16794214D01*
X16398214Y-16808500D01*
X16512500Y-17108500D02*
X16526786Y-17094214D01*
X16555357Y-17051357D01*
X16569643Y-17022786D01*
X16583928Y-16979929D01*
X16598214Y-16908500D01*
X16598214Y-16851357D01*
X16583928Y-16779929D01*
X16569643Y-16737071D01*
X16555357Y-16708500D01*
X16526786Y-16665643D01*
X16512500Y-16651357D01*
X6047500Y-17104500D02*
X6047500Y-17404500D01*
X5897500Y-17254500D02*
X6197500Y-17254500D01*
X6455357Y-17090214D02*
X6641071Y-17090214D01*
X6541071Y-17204500D01*
X6583928Y-17204500D01*
X6612500Y-17218786D01*
X6626786Y-17233072D01*
X6641071Y-17261643D01*
X6641071Y-17333072D01*
X6626786Y-17361643D01*
X6612500Y-17375929D01*
X6583928Y-17390214D01*
X6498214Y-17390214D01*
X6469643Y-17375929D01*
X6455357Y-17361643D01*
X6769643Y-17361643D02*
X6783928Y-17375929D01*
X6769643Y-17390214D01*
X6755357Y-17375929D01*
X6769643Y-17361643D01*
X6769643Y-17390214D01*
X6969643Y-17090214D02*
X6998214Y-17090214D01*
X7026786Y-17104500D01*
X7041071Y-17118786D01*
X7055357Y-17147357D01*
X7069643Y-17204500D01*
X7069643Y-17275929D01*
X7055357Y-17333072D01*
X7041071Y-17361643D01*
X7026786Y-17375929D01*
X6998214Y-17390214D01*
X6969643Y-17390214D01*
X6941071Y-17375929D01*
X6926786Y-17361643D01*
X6912500Y-17333072D01*
X6898214Y-17275929D01*
X6898214Y-17204500D01*
X6912500Y-17147357D01*
X6926786Y-17118786D01*
X6941071Y-17104500D01*
X6969643Y-17090214D01*
X7255357Y-17090214D02*
X7283928Y-17090214D01*
X7312500Y-17104500D01*
X7326786Y-17118786D01*
X7341071Y-17147357D01*
X7355357Y-17204500D01*
X7355357Y-17275929D01*
X7341071Y-17333072D01*
X7326786Y-17361643D01*
X7312500Y-17375929D01*
X7283928Y-17390214D01*
X7255357Y-17390214D01*
X7226786Y-17375929D01*
X7212500Y-17361643D01*
X7198214Y-17333072D01*
X7183928Y-17275929D01*
X7183928Y-17204500D01*
X7198214Y-17147357D01*
X7212500Y-17118786D01*
X7226786Y-17104500D01*
X7255357Y-17090214D01*
X7541071Y-17090214D02*
X7569643Y-17090214D01*
X7598214Y-17104500D01*
X7612500Y-17118786D01*
X7626786Y-17147357D01*
X7641071Y-17204500D01*
X7641071Y-17275929D01*
X7626786Y-17333072D01*
X7612500Y-17361643D01*
X7598214Y-17375929D01*
X7569643Y-17390214D01*
X7541071Y-17390214D01*
X7512500Y-17375929D01*
X7498214Y-17361643D01*
X7483928Y-17333072D01*
X7469643Y-17275929D01*
X7469643Y-17204500D01*
X7483928Y-17147357D01*
X7498214Y-17118786D01*
X7512500Y-17104500D01*
X7541071Y-17090214D01*
X7769643Y-17390214D02*
X7769643Y-17190214D01*
X7769643Y-17218786D02*
X7783928Y-17204500D01*
X7812500Y-17190214D01*
X7855357Y-17190214D01*
X7883928Y-17204500D01*
X7898214Y-17233072D01*
X7898214Y-17390214D01*
X7898214Y-17233072D02*
X7912500Y-17204500D01*
X7941071Y-17190214D01*
X7983928Y-17190214D01*
X8012500Y-17204500D01*
X8026786Y-17233072D01*
X8026786Y-17390214D01*
X8169643Y-17390214D02*
X8169643Y-17190214D01*
X8169643Y-17218786D02*
X8183928Y-17204500D01*
X8212500Y-17190214D01*
X8255357Y-17190214D01*
X8283928Y-17204500D01*
X8298214Y-17233072D01*
X8298214Y-17390214D01*
X8298214Y-17233072D02*
X8312500Y-17204500D01*
X8341071Y-17190214D01*
X8383928Y-17190214D01*
X8412500Y-17204500D01*
X8426786Y-17233072D01*
X8426786Y-17390214D01*
X9012500Y-17075929D02*
X8755357Y-17461643D01*
X9398214Y-17090214D02*
X9426786Y-17090214D01*
X9455357Y-17104500D01*
X9469643Y-17118786D01*
X9483928Y-17147357D01*
X9498214Y-17204500D01*
X9498214Y-17275929D01*
X9483928Y-17333072D01*
X9469643Y-17361643D01*
X9455357Y-17375929D01*
X9426786Y-17390214D01*
X9398214Y-17390214D01*
X9369643Y-17375929D01*
X9355357Y-17361643D01*
X9341071Y-17333072D01*
X9326786Y-17275929D01*
X9326786Y-17204500D01*
X9341071Y-17147357D01*
X9355357Y-17118786D01*
X9369643Y-17104500D01*
X9398214Y-17090214D01*
X9626786Y-17361643D02*
X9641071Y-17375929D01*
X9626786Y-17390214D01*
X9612500Y-17375929D01*
X9626786Y-17361643D01*
X9626786Y-17390214D01*
X9926786Y-17390214D02*
X9755357Y-17390214D01*
X9841071Y-17390214D02*
X9841071Y-17090214D01*
X9812500Y-17133072D01*
X9783928Y-17161643D01*
X9755357Y-17175929D01*
X10212500Y-17390214D02*
X10041071Y-17390214D01*
X10126786Y-17390214D02*
X10126786Y-17090214D01*
X10098214Y-17133072D01*
X10069643Y-17161643D01*
X10041071Y-17175929D01*
X10383928Y-17218786D02*
X10355357Y-17204500D01*
X10341071Y-17190214D01*
X10326786Y-17161643D01*
X10326786Y-17147357D01*
X10341071Y-17118786D01*
X10355357Y-17104500D01*
X10383928Y-17090214D01*
X10441071Y-17090214D01*
X10469643Y-17104500D01*
X10483928Y-17118786D01*
X10498214Y-17147357D01*
X10498214Y-17161643D01*
X10483928Y-17190214D01*
X10469643Y-17204500D01*
X10441071Y-17218786D01*
X10383928Y-17218786D01*
X10355357Y-17233072D01*
X10341071Y-17247357D01*
X10326786Y-17275929D01*
X10326786Y-17333072D01*
X10341071Y-17361643D01*
X10355357Y-17375929D01*
X10383928Y-17390214D01*
X10441071Y-17390214D01*
X10469643Y-17375929D01*
X10483928Y-17361643D01*
X10498214Y-17333072D01*
X10498214Y-17275929D01*
X10483928Y-17247357D01*
X10469643Y-17233072D01*
X10441071Y-17218786D01*
X10783928Y-17390214D02*
X10612500Y-17390214D01*
X10698214Y-17390214D02*
X10698214Y-17090214D01*
X10669643Y-17133072D01*
X10641071Y-17161643D01*
X10612500Y-17175929D01*
X10898214Y-17090214D02*
X10898214Y-17147357D01*
X11012500Y-17090214D02*
X11012500Y-17147357D01*
X11455357Y-17504500D02*
X11441071Y-17490214D01*
X11412500Y-17447357D01*
X11398214Y-17418786D01*
X11383928Y-17375929D01*
X11369643Y-17304500D01*
X11369643Y-17247357D01*
X11383928Y-17175929D01*
X11398214Y-17133072D01*
X11412500Y-17104500D01*
X11441071Y-17061643D01*
X11455357Y-17047357D01*
X11726786Y-17390214D02*
X11555357Y-17390214D01*
X11641071Y-17390214D02*
X11641071Y-17090214D01*
X11612500Y-17133072D01*
X11583928Y-17161643D01*
X11555357Y-17175929D01*
X11841071Y-17118786D02*
X11855357Y-17104500D01*
X11883928Y-17090214D01*
X11955357Y-17090214D01*
X11983928Y-17104500D01*
X11998214Y-17118786D01*
X12012500Y-17147357D01*
X12012500Y-17175929D01*
X11998214Y-17218786D01*
X11826786Y-17390214D01*
X12012500Y-17390214D01*
X12198214Y-17090214D02*
X12226786Y-17090214D01*
X12255357Y-17104500D01*
X12269643Y-17118786D01*
X12283928Y-17147357D01*
X12298214Y-17204500D01*
X12298214Y-17275929D01*
X12283928Y-17333072D01*
X12269643Y-17361643D01*
X12255357Y-17375929D01*
X12226786Y-17390214D01*
X12198214Y-17390214D01*
X12169643Y-17375929D01*
X12155357Y-17361643D01*
X12141071Y-17333072D01*
X12126786Y-17275929D01*
X12126786Y-17204500D01*
X12141071Y-17147357D01*
X12155357Y-17118786D01*
X12169643Y-17104500D01*
X12198214Y-17090214D01*
X12655357Y-17390214D02*
X12655357Y-17090214D01*
X12783928Y-17390214D02*
X12783928Y-17233072D01*
X12769643Y-17204500D01*
X12741071Y-17190214D01*
X12698214Y-17190214D01*
X12669643Y-17204500D01*
X12655357Y-17218786D01*
X12969643Y-17390214D02*
X12941071Y-17375929D01*
X12926786Y-17361643D01*
X12912500Y-17333072D01*
X12912500Y-17247357D01*
X12926786Y-17218786D01*
X12941071Y-17204500D01*
X12969643Y-17190214D01*
X13012500Y-17190214D01*
X13041071Y-17204500D01*
X13055357Y-17218786D01*
X13069643Y-17247357D01*
X13069643Y-17333072D01*
X13055357Y-17361643D01*
X13041071Y-17375929D01*
X13012500Y-17390214D01*
X12969643Y-17390214D01*
X13241071Y-17390214D02*
X13212500Y-17375929D01*
X13198214Y-17347357D01*
X13198214Y-17090214D01*
X13469643Y-17375929D02*
X13441071Y-17390214D01*
X13383928Y-17390214D01*
X13355357Y-17375929D01*
X13341071Y-17347357D01*
X13341071Y-17233072D01*
X13355357Y-17204500D01*
X13383928Y-17190214D01*
X13441071Y-17190214D01*
X13469643Y-17204500D01*
X13483928Y-17233072D01*
X13483928Y-17261643D01*
X13341071Y-17290214D01*
X13598214Y-17375929D02*
X13626786Y-17390214D01*
X13683928Y-17390214D01*
X13712500Y-17375929D01*
X13726786Y-17347357D01*
X13726786Y-17333072D01*
X13712500Y-17304500D01*
X13683928Y-17290214D01*
X13641071Y-17290214D01*
X13612500Y-17275929D01*
X13598214Y-17247357D01*
X13598214Y-17233072D01*
X13612500Y-17204500D01*
X13641071Y-17190214D01*
X13683928Y-17190214D01*
X13712500Y-17204500D01*
X13826786Y-17504500D02*
X13841071Y-17490214D01*
X13869643Y-17447357D01*
X13883928Y-17418786D01*
X13898214Y-17375929D01*
X13912500Y-17304500D01*
X13912500Y-17247357D01*
X13898214Y-17175929D01*
X13883928Y-17133072D01*
X13869643Y-17104500D01*
X13841071Y-17061643D01*
X13826786Y-17047357D01*
X14369643Y-17504500D02*
X14355357Y-17490214D01*
X14326786Y-17447357D01*
X14312500Y-17418786D01*
X14298214Y-17375929D01*
X14283928Y-17304500D01*
X14283928Y-17247357D01*
X14298214Y-17175929D01*
X14312500Y-17133072D01*
X14326786Y-17104500D01*
X14355357Y-17061643D01*
X14369643Y-17047357D01*
X14483928Y-17190214D02*
X14483928Y-17390214D01*
X14483928Y-17218786D02*
X14498214Y-17204500D01*
X14526786Y-17190214D01*
X14569643Y-17190214D01*
X14598214Y-17204500D01*
X14612500Y-17233072D01*
X14612500Y-17390214D01*
X14798214Y-17390214D02*
X14769643Y-17375929D01*
X14755357Y-17361643D01*
X14741071Y-17333072D01*
X14741071Y-17247357D01*
X14755357Y-17218786D01*
X14769643Y-17204500D01*
X14798214Y-17190214D01*
X14841071Y-17190214D01*
X14869643Y-17204500D01*
X14883928Y-17218786D01*
X14898214Y-17247357D01*
X14898214Y-17333072D01*
X14883928Y-17361643D01*
X14869643Y-17375929D01*
X14841071Y-17390214D01*
X14798214Y-17390214D01*
X14983928Y-17190214D02*
X15098214Y-17190214D01*
X15026786Y-17090214D02*
X15026786Y-17347357D01*
X15041071Y-17375929D01*
X15069643Y-17390214D01*
X15098214Y-17390214D01*
X15426786Y-17190214D02*
X15426786Y-17490214D01*
X15426786Y-17204500D02*
X15455357Y-17190214D01*
X15512500Y-17190214D01*
X15541071Y-17204500D01*
X15555357Y-17218786D01*
X15569643Y-17247357D01*
X15569643Y-17333072D01*
X15555357Y-17361643D01*
X15541071Y-17375929D01*
X15512500Y-17390214D01*
X15455357Y-17390214D01*
X15426786Y-17375929D01*
X15741071Y-17390214D02*
X15712500Y-17375929D01*
X15698214Y-17347357D01*
X15698214Y-17090214D01*
X15983928Y-17390214D02*
X15983928Y-17233072D01*
X15969643Y-17204500D01*
X15941071Y-17190214D01*
X15883928Y-17190214D01*
X15855357Y-17204500D01*
X15983928Y-17375929D02*
X15955357Y-17390214D01*
X15883928Y-17390214D01*
X15855357Y-17375929D01*
X15841071Y-17347357D01*
X15841071Y-17318786D01*
X15855357Y-17290214D01*
X15883928Y-17275929D01*
X15955357Y-17275929D01*
X15983928Y-17261643D01*
X16083928Y-17190214D02*
X16198214Y-17190214D01*
X16126786Y-17090214D02*
X16126786Y-17347357D01*
X16141071Y-17375929D01*
X16169643Y-17390214D01*
X16198214Y-17390214D01*
X16412500Y-17375929D02*
X16383928Y-17390214D01*
X16326786Y-17390214D01*
X16298214Y-17375929D01*
X16283928Y-17347357D01*
X16283928Y-17233072D01*
X16298214Y-17204500D01*
X16326786Y-17190214D01*
X16383928Y-17190214D01*
X16412500Y-17204500D01*
X16426786Y-17233072D01*
X16426786Y-17261643D01*
X16283928Y-17290214D01*
X16683928Y-17390214D02*
X16683928Y-17090214D01*
X16683928Y-17375929D02*
X16655357Y-17390214D01*
X16598214Y-17390214D01*
X16569643Y-17375929D01*
X16555357Y-17361643D01*
X16541071Y-17333072D01*
X16541071Y-17247357D01*
X16555357Y-17218786D01*
X16569643Y-17204500D01*
X16598214Y-17190214D01*
X16655357Y-17190214D01*
X16683928Y-17204500D01*
X16798214Y-17504500D02*
X16812500Y-17490214D01*
X16841071Y-17447357D01*
X16855357Y-17418786D01*
X16869643Y-17375929D01*
X16883928Y-17304500D01*
X16883928Y-17247357D01*
X16869643Y-17175929D01*
X16855357Y-17133072D01*
X16841071Y-17104500D01*
X16812500Y-17061643D01*
X16798214Y-17047357D01*
X6150638Y-17797638D02*
X6150638Y-17571362D01*
X5924362Y-17571362D01*
X5924362Y-17797638D01*
X6150638Y-17797638D01*
X6455357Y-17520214D02*
X6641071Y-17520214D01*
X6541071Y-17634500D01*
X6583928Y-17634500D01*
X6612500Y-17648786D01*
X6626786Y-17663072D01*
X6641071Y-17691643D01*
X6641071Y-17763072D01*
X6626786Y-17791643D01*
X6612500Y-17805929D01*
X6583928Y-17820214D01*
X6498214Y-17820214D01*
X6469643Y-17805929D01*
X6455357Y-17791643D01*
X6769643Y-17791643D02*
X6783928Y-17805929D01*
X6769643Y-17820214D01*
X6755357Y-17805929D01*
X6769643Y-17791643D01*
X6769643Y-17820214D01*
X6898214Y-17548786D02*
X6912500Y-17534500D01*
X6941071Y-17520214D01*
X7012500Y-17520214D01*
X7041071Y-17534500D01*
X7055357Y-17548786D01*
X7069643Y-17577357D01*
X7069643Y-17605929D01*
X7055357Y-17648786D01*
X6883928Y-17820214D01*
X7069643Y-17820214D01*
X7255357Y-17520214D02*
X7283928Y-17520214D01*
X7312500Y-17534500D01*
X7326786Y-17548786D01*
X7341071Y-17577357D01*
X7355357Y-17634500D01*
X7355357Y-17705929D01*
X7341071Y-17763072D01*
X7326786Y-17791643D01*
X7312500Y-17805929D01*
X7283928Y-17820214D01*
X7255357Y-17820214D01*
X7226786Y-17805929D01*
X7212500Y-17791643D01*
X7198214Y-17763072D01*
X7183928Y-17705929D01*
X7183928Y-17634500D01*
X7198214Y-17577357D01*
X7212500Y-17548786D01*
X7226786Y-17534500D01*
X7255357Y-17520214D01*
X7541071Y-17520214D02*
X7569643Y-17520214D01*
X7598214Y-17534500D01*
X7612500Y-17548786D01*
X7626786Y-17577357D01*
X7641071Y-17634500D01*
X7641071Y-17705929D01*
X7626786Y-17763072D01*
X7612500Y-17791643D01*
X7598214Y-17805929D01*
X7569643Y-17820214D01*
X7541071Y-17820214D01*
X7512500Y-17805929D01*
X7498214Y-17791643D01*
X7483928Y-17763072D01*
X7469643Y-17705929D01*
X7469643Y-17634500D01*
X7483928Y-17577357D01*
X7498214Y-17548786D01*
X7512500Y-17534500D01*
X7541071Y-17520214D01*
X7769643Y-17820214D02*
X7769643Y-17620214D01*
X7769643Y-17648786D02*
X7783928Y-17634500D01*
X7812500Y-17620214D01*
X7855357Y-17620214D01*
X7883928Y-17634500D01*
X7898214Y-17663072D01*
X7898214Y-17820214D01*
X7898214Y-17663072D02*
X7912500Y-17634500D01*
X7941071Y-17620214D01*
X7983928Y-17620214D01*
X8012500Y-17634500D01*
X8026786Y-17663072D01*
X8026786Y-17820214D01*
X8169643Y-17820214D02*
X8169643Y-17620214D01*
X8169643Y-17648786D02*
X8183928Y-17634500D01*
X8212500Y-17620214D01*
X8255357Y-17620214D01*
X8283928Y-17634500D01*
X8298214Y-17663072D01*
X8298214Y-17820214D01*
X8298214Y-17663072D02*
X8312500Y-17634500D01*
X8341071Y-17620214D01*
X8383928Y-17620214D01*
X8412500Y-17634500D01*
X8426786Y-17663072D01*
X8426786Y-17820214D01*
X9012500Y-17505929D02*
X8755357Y-17891643D01*
X9398214Y-17520214D02*
X9426786Y-17520214D01*
X9455357Y-17534500D01*
X9469643Y-17548786D01*
X9483928Y-17577357D01*
X9498214Y-17634500D01*
X9498214Y-17705929D01*
X9483928Y-17763072D01*
X9469643Y-17791643D01*
X9455357Y-17805929D01*
X9426786Y-17820214D01*
X9398214Y-17820214D01*
X9369643Y-17805929D01*
X9355357Y-17791643D01*
X9341071Y-17763072D01*
X9326786Y-17705929D01*
X9326786Y-17634500D01*
X9341071Y-17577357D01*
X9355357Y-17548786D01*
X9369643Y-17534500D01*
X9398214Y-17520214D01*
X9626786Y-17791643D02*
X9641071Y-17805929D01*
X9626786Y-17820214D01*
X9612500Y-17805929D01*
X9626786Y-17791643D01*
X9626786Y-17820214D01*
X9926786Y-17820214D02*
X9755357Y-17820214D01*
X9841071Y-17820214D02*
X9841071Y-17520214D01*
X9812500Y-17563072D01*
X9783928Y-17591643D01*
X9755357Y-17605929D01*
X10041071Y-17548786D02*
X10055357Y-17534500D01*
X10083928Y-17520214D01*
X10155357Y-17520214D01*
X10183928Y-17534500D01*
X10198214Y-17548786D01*
X10212500Y-17577357D01*
X10212500Y-17605929D01*
X10198214Y-17648786D01*
X10026786Y-17820214D01*
X10212500Y-17820214D01*
X10469643Y-17520214D02*
X10412500Y-17520214D01*
X10383928Y-17534500D01*
X10369643Y-17548786D01*
X10341071Y-17591643D01*
X10326786Y-17648786D01*
X10326786Y-17763072D01*
X10341071Y-17791643D01*
X10355357Y-17805929D01*
X10383928Y-17820214D01*
X10441071Y-17820214D01*
X10469643Y-17805929D01*
X10483928Y-17791643D01*
X10498214Y-17763072D01*
X10498214Y-17691643D01*
X10483928Y-17663072D01*
X10469643Y-17648786D01*
X10441071Y-17634500D01*
X10383928Y-17634500D01*
X10355357Y-17648786D01*
X10341071Y-17663072D01*
X10326786Y-17691643D01*
X10683928Y-17520214D02*
X10712500Y-17520214D01*
X10741071Y-17534500D01*
X10755357Y-17548786D01*
X10769643Y-17577357D01*
X10783928Y-17634500D01*
X10783928Y-17705929D01*
X10769643Y-17763072D01*
X10755357Y-17791643D01*
X10741071Y-17805929D01*
X10712500Y-17820214D01*
X10683928Y-17820214D01*
X10655357Y-17805929D01*
X10641071Y-17791643D01*
X10626786Y-17763072D01*
X10612500Y-17705929D01*
X10612500Y-17634500D01*
X10626786Y-17577357D01*
X10641071Y-17548786D01*
X10655357Y-17534500D01*
X10683928Y-17520214D01*
X10898214Y-17520214D02*
X10898214Y-17577357D01*
X11012500Y-17520214D02*
X11012500Y-17577357D01*
X11455357Y-17934500D02*
X11441071Y-17920214D01*
X11412500Y-17877357D01*
X11398214Y-17848786D01*
X11383928Y-17805929D01*
X11369643Y-17734500D01*
X11369643Y-17677357D01*
X11383928Y-17605929D01*
X11398214Y-17563072D01*
X11412500Y-17534500D01*
X11441071Y-17491643D01*
X11455357Y-17477357D01*
X11712500Y-17520214D02*
X11569643Y-17520214D01*
X11555357Y-17663072D01*
X11569643Y-17648786D01*
X11598214Y-17634500D01*
X11669643Y-17634500D01*
X11698214Y-17648786D01*
X11712500Y-17663072D01*
X11726786Y-17691643D01*
X11726786Y-17763072D01*
X11712500Y-17791643D01*
X11698214Y-17805929D01*
X11669643Y-17820214D01*
X11598214Y-17820214D01*
X11569643Y-17805929D01*
X11555357Y-17791643D01*
X12083928Y-17820214D02*
X12083928Y-17520214D01*
X12212500Y-17820214D02*
X12212500Y-17663072D01*
X12198214Y-17634500D01*
X12169643Y-17620214D01*
X12126786Y-17620214D01*
X12098214Y-17634500D01*
X12083928Y-17648786D01*
X12398214Y-17820214D02*
X12369643Y-17805929D01*
X12355357Y-17791643D01*
X12341071Y-17763072D01*
X12341071Y-17677357D01*
X12355357Y-17648786D01*
X12369643Y-17634500D01*
X12398214Y-17620214D01*
X12441071Y-17620214D01*
X12469643Y-17634500D01*
X12483928Y-17648786D01*
X12498214Y-17677357D01*
X12498214Y-17763072D01*
X12483928Y-17791643D01*
X12469643Y-17805929D01*
X12441071Y-17820214D01*
X12398214Y-17820214D01*
X12669643Y-17820214D02*
X12641071Y-17805929D01*
X12626786Y-17777357D01*
X12626786Y-17520214D01*
X12898214Y-17805929D02*
X12869643Y-17820214D01*
X12812500Y-17820214D01*
X12783928Y-17805929D01*
X12769643Y-17777357D01*
X12769643Y-17663072D01*
X12783928Y-17634500D01*
X12812500Y-17620214D01*
X12869643Y-17620214D01*
X12898214Y-17634500D01*
X12912500Y-17663072D01*
X12912500Y-17691643D01*
X12769643Y-17720214D01*
X13026786Y-17805929D02*
X13055357Y-17820214D01*
X13112500Y-17820214D01*
X13141071Y-17805929D01*
X13155357Y-17777357D01*
X13155357Y-17763072D01*
X13141071Y-17734500D01*
X13112500Y-17720214D01*
X13069643Y-17720214D01*
X13041071Y-17705929D01*
X13026786Y-17677357D01*
X13026786Y-17663072D01*
X13041071Y-17634500D01*
X13069643Y-17620214D01*
X13112500Y-17620214D01*
X13141071Y-17634500D01*
X13255357Y-17934500D02*
X13269643Y-17920214D01*
X13298214Y-17877357D01*
X13312500Y-17848786D01*
X13326786Y-17805929D01*
X13341071Y-17734500D01*
X13341071Y-17677357D01*
X13326786Y-17605929D01*
X13312500Y-17563072D01*
X13298214Y-17534500D01*
X13269643Y-17491643D01*
X13255357Y-17477357D01*
X13798214Y-17934500D02*
X13783928Y-17920214D01*
X13755357Y-17877357D01*
X13741071Y-17848786D01*
X13726786Y-17805929D01*
X13712500Y-17734500D01*
X13712500Y-17677357D01*
X13726786Y-17605929D01*
X13741071Y-17563072D01*
X13755357Y-17534500D01*
X13783928Y-17491643D01*
X13798214Y-17477357D01*
X13912500Y-17620214D02*
X13912500Y-17820214D01*
X13912500Y-17648786D02*
X13926786Y-17634500D01*
X13955357Y-17620214D01*
X13998214Y-17620214D01*
X14026786Y-17634500D01*
X14041071Y-17663072D01*
X14041071Y-17820214D01*
X14226786Y-17820214D02*
X14198214Y-17805929D01*
X14183928Y-17791643D01*
X14169643Y-17763072D01*
X14169643Y-17677357D01*
X14183928Y-17648786D01*
X14198214Y-17634500D01*
X14226786Y-17620214D01*
X14269643Y-17620214D01*
X14298214Y-17634500D01*
X14312500Y-17648786D01*
X14326786Y-17677357D01*
X14326786Y-17763072D01*
X14312500Y-17791643D01*
X14298214Y-17805929D01*
X14269643Y-17820214D01*
X14226786Y-17820214D01*
X14412500Y-17620214D02*
X14526786Y-17620214D01*
X14455357Y-17520214D02*
X14455357Y-17777357D01*
X14469643Y-17805929D01*
X14498214Y-17820214D01*
X14526786Y-17820214D01*
X14855357Y-17620214D02*
X14855357Y-17920214D01*
X14855357Y-17634500D02*
X14883928Y-17620214D01*
X14941071Y-17620214D01*
X14969643Y-17634500D01*
X14983928Y-17648786D01*
X14998214Y-17677357D01*
X14998214Y-17763072D01*
X14983928Y-17791643D01*
X14969643Y-17805929D01*
X14941071Y-17820214D01*
X14883928Y-17820214D01*
X14855357Y-17805929D01*
X15169643Y-17820214D02*
X15141071Y-17805929D01*
X15126786Y-17777357D01*
X15126786Y-17520214D01*
X15412500Y-17820214D02*
X15412500Y-17663072D01*
X15398214Y-17634500D01*
X15369643Y-17620214D01*
X15312500Y-17620214D01*
X15283928Y-17634500D01*
X15412500Y-17805929D02*
X15383928Y-17820214D01*
X15312500Y-17820214D01*
X15283928Y-17805929D01*
X15269643Y-17777357D01*
X15269643Y-17748786D01*
X15283928Y-17720214D01*
X15312500Y-17705929D01*
X15383928Y-17705929D01*
X15412500Y-17691643D01*
X15512500Y-17620214D02*
X15626786Y-17620214D01*
X15555357Y-17520214D02*
X15555357Y-17777357D01*
X15569643Y-17805929D01*
X15598214Y-17820214D01*
X15626786Y-17820214D01*
X15841071Y-17805929D02*
X15812500Y-17820214D01*
X15755357Y-17820214D01*
X15726786Y-17805929D01*
X15712500Y-17777357D01*
X15712500Y-17663072D01*
X15726786Y-17634500D01*
X15755357Y-17620214D01*
X15812500Y-17620214D01*
X15841071Y-17634500D01*
X15855357Y-17663072D01*
X15855357Y-17691643D01*
X15712500Y-17720214D01*
X16112500Y-17820214D02*
X16112500Y-17520214D01*
X16112500Y-17805929D02*
X16083928Y-17820214D01*
X16026786Y-17820214D01*
X15998214Y-17805929D01*
X15983928Y-17791643D01*
X15969643Y-17763072D01*
X15969643Y-17677357D01*
X15983928Y-17648786D01*
X15998214Y-17634500D01*
X16026786Y-17620214D01*
X16083928Y-17620214D01*
X16112500Y-17634500D01*
X16226786Y-17934500D02*
X16241071Y-17920214D01*
X16269643Y-17877357D01*
X16283928Y-17848786D01*
X16298214Y-17805929D01*
X16312500Y-17734500D01*
X16312500Y-17677357D01*
X16298214Y-17605929D01*
X16283928Y-17563072D01*
X16269643Y-17534500D01*
X16241071Y-17491643D01*
X16226786Y-17477357D01*
X5997500Y-18334500D02*
X6197500Y-18134500D01*
X5997500Y-17934500D01*
X5797500Y-18134500D01*
X5997500Y-18334500D01*
X6612500Y-18070214D02*
X6612500Y-18270214D01*
X6541071Y-17955929D02*
X6469643Y-18170214D01*
X6655357Y-18170214D01*
X6769643Y-18241643D02*
X6783928Y-18255929D01*
X6769643Y-18270214D01*
X6755357Y-18255929D01*
X6769643Y-18241643D01*
X6769643Y-18270214D01*
X6969643Y-17970214D02*
X6998214Y-17970214D01*
X7026786Y-17984500D01*
X7041071Y-17998786D01*
X7055357Y-18027357D01*
X7069643Y-18084500D01*
X7069643Y-18155929D01*
X7055357Y-18213072D01*
X7041071Y-18241643D01*
X7026786Y-18255929D01*
X6998214Y-18270214D01*
X6969643Y-18270214D01*
X6941071Y-18255929D01*
X6926786Y-18241643D01*
X6912500Y-18213072D01*
X6898214Y-18155929D01*
X6898214Y-18084500D01*
X6912500Y-18027357D01*
X6926786Y-17998786D01*
X6941071Y-17984500D01*
X6969643Y-17970214D01*
X7255357Y-17970214D02*
X7283928Y-17970214D01*
X7312500Y-17984500D01*
X7326786Y-17998786D01*
X7341071Y-18027357D01*
X7355357Y-18084500D01*
X7355357Y-18155929D01*
X7341071Y-18213072D01*
X7326786Y-18241643D01*
X7312500Y-18255929D01*
X7283928Y-18270214D01*
X7255357Y-18270214D01*
X7226786Y-18255929D01*
X7212500Y-18241643D01*
X7198214Y-18213072D01*
X7183928Y-18155929D01*
X7183928Y-18084500D01*
X7198214Y-18027357D01*
X7212500Y-17998786D01*
X7226786Y-17984500D01*
X7255357Y-17970214D01*
X7541071Y-17970214D02*
X7569643Y-17970214D01*
X7598214Y-17984500D01*
X7612500Y-17998786D01*
X7626786Y-18027357D01*
X7641071Y-18084500D01*
X7641071Y-18155929D01*
X7626786Y-18213072D01*
X7612500Y-18241643D01*
X7598214Y-18255929D01*
X7569643Y-18270214D01*
X7541071Y-18270214D01*
X7512500Y-18255929D01*
X7498214Y-18241643D01*
X7483928Y-18213072D01*
X7469643Y-18155929D01*
X7469643Y-18084500D01*
X7483928Y-18027357D01*
X7498214Y-17998786D01*
X7512500Y-17984500D01*
X7541071Y-17970214D01*
X7769643Y-18270214D02*
X7769643Y-18070214D01*
X7769643Y-18098786D02*
X7783928Y-18084500D01*
X7812500Y-18070214D01*
X7855357Y-18070214D01*
X7883928Y-18084500D01*
X7898214Y-18113072D01*
X7898214Y-18270214D01*
X7898214Y-18113072D02*
X7912500Y-18084500D01*
X7941071Y-18070214D01*
X7983928Y-18070214D01*
X8012500Y-18084500D01*
X8026786Y-18113072D01*
X8026786Y-18270214D01*
X8169643Y-18270214D02*
X8169643Y-18070214D01*
X8169643Y-18098786D02*
X8183928Y-18084500D01*
X8212500Y-18070214D01*
X8255357Y-18070214D01*
X8283928Y-18084500D01*
X8298214Y-18113072D01*
X8298214Y-18270214D01*
X8298214Y-18113072D02*
X8312500Y-18084500D01*
X8341071Y-18070214D01*
X8383928Y-18070214D01*
X8412500Y-18084500D01*
X8426786Y-18113072D01*
X8426786Y-18270214D01*
X9012500Y-17955929D02*
X8755357Y-18341643D01*
X9398214Y-17970214D02*
X9426786Y-17970214D01*
X9455357Y-17984500D01*
X9469643Y-17998786D01*
X9483928Y-18027357D01*
X9498214Y-18084500D01*
X9498214Y-18155929D01*
X9483928Y-18213072D01*
X9469643Y-18241643D01*
X9455357Y-18255929D01*
X9426786Y-18270214D01*
X9398214Y-18270214D01*
X9369643Y-18255929D01*
X9355357Y-18241643D01*
X9341071Y-18213072D01*
X9326786Y-18155929D01*
X9326786Y-18084500D01*
X9341071Y-18027357D01*
X9355357Y-17998786D01*
X9369643Y-17984500D01*
X9398214Y-17970214D01*
X9626786Y-18241643D02*
X9641071Y-18255929D01*
X9626786Y-18270214D01*
X9612500Y-18255929D01*
X9626786Y-18241643D01*
X9626786Y-18270214D01*
X9926786Y-18270214D02*
X9755357Y-18270214D01*
X9841071Y-18270214D02*
X9841071Y-17970214D01*
X9812500Y-18013072D01*
X9783928Y-18041643D01*
X9755357Y-18055929D01*
X10198214Y-17970214D02*
X10055357Y-17970214D01*
X10041071Y-18113072D01*
X10055357Y-18098786D01*
X10083928Y-18084500D01*
X10155357Y-18084500D01*
X10183928Y-18098786D01*
X10198214Y-18113072D01*
X10212500Y-18141643D01*
X10212500Y-18213072D01*
X10198214Y-18241643D01*
X10183928Y-18255929D01*
X10155357Y-18270214D01*
X10083928Y-18270214D01*
X10055357Y-18255929D01*
X10041071Y-18241643D01*
X10312500Y-17970214D02*
X10512500Y-17970214D01*
X10383928Y-18270214D01*
X10769643Y-17970214D02*
X10626786Y-17970214D01*
X10612500Y-18113072D01*
X10626786Y-18098786D01*
X10655357Y-18084500D01*
X10726786Y-18084500D01*
X10755357Y-18098786D01*
X10769643Y-18113072D01*
X10783928Y-18141643D01*
X10783928Y-18213072D01*
X10769643Y-18241643D01*
X10755357Y-18255929D01*
X10726786Y-18270214D01*
X10655357Y-18270214D01*
X10626786Y-18255929D01*
X10612500Y-18241643D01*
X10898214Y-17970214D02*
X10898214Y-18027357D01*
X11012500Y-17970214D02*
X11012500Y-18027357D01*
X11455357Y-18384500D02*
X11441071Y-18370214D01*
X11412500Y-18327357D01*
X11398214Y-18298786D01*
X11383928Y-18255929D01*
X11369643Y-18184500D01*
X11369643Y-18127357D01*
X11383928Y-18055929D01*
X11398214Y-18013072D01*
X11412500Y-17984500D01*
X11441071Y-17941643D01*
X11455357Y-17927357D01*
X11541071Y-17970214D02*
X11726786Y-17970214D01*
X11626786Y-18084500D01*
X11669643Y-18084500D01*
X11698214Y-18098786D01*
X11712500Y-18113072D01*
X11726786Y-18141643D01*
X11726786Y-18213072D01*
X11712500Y-18241643D01*
X11698214Y-18255929D01*
X11669643Y-18270214D01*
X11583928Y-18270214D01*
X11555357Y-18255929D01*
X11541071Y-18241643D01*
X11912500Y-17970214D02*
X11941071Y-17970214D01*
X11969643Y-17984500D01*
X11983928Y-17998786D01*
X11998214Y-18027357D01*
X12012500Y-18084500D01*
X12012500Y-18155929D01*
X11998214Y-18213072D01*
X11983928Y-18241643D01*
X11969643Y-18255929D01*
X11941071Y-18270214D01*
X11912500Y-18270214D01*
X11883928Y-18255929D01*
X11869643Y-18241643D01*
X11855357Y-18213072D01*
X11841071Y-18155929D01*
X11841071Y-18084500D01*
X11855357Y-18027357D01*
X11869643Y-17998786D01*
X11883928Y-17984500D01*
X11912500Y-17970214D01*
X12369643Y-18270214D02*
X12369643Y-17970214D01*
X12498214Y-18270214D02*
X12498214Y-18113072D01*
X12483928Y-18084500D01*
X12455357Y-18070214D01*
X12412500Y-18070214D01*
X12383928Y-18084500D01*
X12369643Y-18098786D01*
X12683928Y-18270214D02*
X12655357Y-18255929D01*
X12641071Y-18241643D01*
X12626786Y-18213072D01*
X12626786Y-18127357D01*
X12641071Y-18098786D01*
X12655357Y-18084500D01*
X12683928Y-18070214D01*
X12726786Y-18070214D01*
X12755357Y-18084500D01*
X12769643Y-18098786D01*
X12783928Y-18127357D01*
X12783928Y-18213072D01*
X12769643Y-18241643D01*
X12755357Y-18255929D01*
X12726786Y-18270214D01*
X12683928Y-18270214D01*
X12955357Y-18270214D02*
X12926786Y-18255929D01*
X12912500Y-18227357D01*
X12912500Y-17970214D01*
X13183928Y-18255929D02*
X13155357Y-18270214D01*
X13098214Y-18270214D01*
X13069643Y-18255929D01*
X13055357Y-18227357D01*
X13055357Y-18113072D01*
X13069643Y-18084500D01*
X13098214Y-18070214D01*
X13155357Y-18070214D01*
X13183928Y-18084500D01*
X13198214Y-18113072D01*
X13198214Y-18141643D01*
X13055357Y-18170214D01*
X13312500Y-18255929D02*
X13341071Y-18270214D01*
X13398214Y-18270214D01*
X13426786Y-18255929D01*
X13441071Y-18227357D01*
X13441071Y-18213072D01*
X13426786Y-18184500D01*
X13398214Y-18170214D01*
X13355357Y-18170214D01*
X13326786Y-18155929D01*
X13312500Y-18127357D01*
X13312500Y-18113072D01*
X13326786Y-18084500D01*
X13355357Y-18070214D01*
X13398214Y-18070214D01*
X13426786Y-18084500D01*
X13541071Y-18384500D02*
X13555357Y-18370214D01*
X13583928Y-18327357D01*
X13598214Y-18298786D01*
X13612500Y-18255929D01*
X13626786Y-18184500D01*
X13626786Y-18127357D01*
X13612500Y-18055929D01*
X13598214Y-18013072D01*
X13583928Y-17984500D01*
X13555357Y-17941643D01*
X13541071Y-17927357D01*
X14083928Y-18384500D02*
X14069643Y-18370214D01*
X14041071Y-18327357D01*
X14026786Y-18298786D01*
X14012500Y-18255929D01*
X13998214Y-18184500D01*
X13998214Y-18127357D01*
X14012500Y-18055929D01*
X14026786Y-18013072D01*
X14041071Y-17984500D01*
X14069643Y-17941643D01*
X14083928Y-17927357D01*
X14198214Y-18070214D02*
X14198214Y-18270214D01*
X14198214Y-18098786D02*
X14212500Y-18084500D01*
X14241071Y-18070214D01*
X14283928Y-18070214D01*
X14312500Y-18084500D01*
X14326786Y-18113072D01*
X14326786Y-18270214D01*
X14512500Y-18270214D02*
X14483928Y-18255929D01*
X14469643Y-18241643D01*
X14455357Y-18213072D01*
X14455357Y-18127357D01*
X14469643Y-18098786D01*
X14483928Y-18084500D01*
X14512500Y-18070214D01*
X14555357Y-18070214D01*
X14583928Y-18084500D01*
X14598214Y-18098786D01*
X14612500Y-18127357D01*
X14612500Y-18213072D01*
X14598214Y-18241643D01*
X14583928Y-18255929D01*
X14555357Y-18270214D01*
X14512500Y-18270214D01*
X14698214Y-18070214D02*
X14812500Y-18070214D01*
X14741071Y-17970214D02*
X14741071Y-18227357D01*
X14755357Y-18255929D01*
X14783928Y-18270214D01*
X14812500Y-18270214D01*
X15141071Y-18070214D02*
X15141071Y-18370214D01*
X15141071Y-18084500D02*
X15169643Y-18070214D01*
X15226786Y-18070214D01*
X15255357Y-18084500D01*
X15269643Y-18098786D01*
X15283928Y-18127357D01*
X15283928Y-18213072D01*
X15269643Y-18241643D01*
X15255357Y-18255929D01*
X15226786Y-18270214D01*
X15169643Y-18270214D01*
X15141071Y-18255929D01*
X15455357Y-18270214D02*
X15426786Y-18255929D01*
X15412500Y-18227357D01*
X15412500Y-17970214D01*
X15698214Y-18270214D02*
X15698214Y-18113072D01*
X15683928Y-18084500D01*
X15655357Y-18070214D01*
X15598214Y-18070214D01*
X15569643Y-18084500D01*
X15698214Y-18255929D02*
X15669643Y-18270214D01*
X15598214Y-18270214D01*
X15569643Y-18255929D01*
X15555357Y-18227357D01*
X15555357Y-18198786D01*
X15569643Y-18170214D01*
X15598214Y-18155929D01*
X15669643Y-18155929D01*
X15698214Y-18141643D01*
X15798214Y-18070214D02*
X15912500Y-18070214D01*
X15841071Y-17970214D02*
X15841071Y-18227357D01*
X15855357Y-18255929D01*
X15883928Y-18270214D01*
X15912500Y-18270214D01*
X16126786Y-18255929D02*
X16098214Y-18270214D01*
X16041071Y-18270214D01*
X16012500Y-18255929D01*
X15998214Y-18227357D01*
X15998214Y-18113072D01*
X16012500Y-18084500D01*
X16041071Y-18070214D01*
X16098214Y-18070214D01*
X16126786Y-18084500D01*
X16141071Y-18113072D01*
X16141071Y-18141643D01*
X15998214Y-18170214D01*
X16398214Y-18270214D02*
X16398214Y-17970214D01*
X16398214Y-18255929D02*
X16369643Y-18270214D01*
X16312500Y-18270214D01*
X16283928Y-18255929D01*
X16269643Y-18241643D01*
X16255357Y-18213072D01*
X16255357Y-18127357D01*
X16269643Y-18098786D01*
X16283928Y-18084500D01*
X16312500Y-18070214D01*
X16369643Y-18070214D01*
X16398214Y-18084500D01*
X16512500Y-18384500D02*
X16526786Y-18370214D01*
X16555357Y-18327357D01*
X16569643Y-18298786D01*
X16583928Y-18255929D01*
X16598214Y-18184500D01*
X16598214Y-18127357D01*
X16583928Y-18055929D01*
X16569643Y-18013072D01*
X16555357Y-17984500D01*
X16526786Y-17941643D01*
X16512500Y-17927357D01*
M02*
